first_name,last_name,email,webitcash_amount,is_active,order_count,webitcash_expiry_date,last_purchases_date,registered_date,last_login
John,Smith,kuoyewlee@icloud.com,0,1,31,9/24/2023,6/16/2016,10/26/2012 2:21:00,6/16/2015 23:19:00
E,Shop,e-shop@shopnewzealand.co.nz,0,1,1186,1/20/2017,1/21/2016,9/5/2013 8:50:00,1/21/2016 5:21:00
E,Shop,e-shop@shopaustraliaonline.com.au,0,1,18,11/4/2017,4/11/2016,11/23/2013 5:12:00,5/3/2016 8:38:00
Chris,Betros,chris@japantoday.com,17.81,1,19,1/6/2017,6/1/2017,9/3/2013 6:25:00,9/1/2014 5:51:00
Kristine,Goh,gohkris@yahoo.com.sg,0,1,8,8/12/2017,12/8/2016,4/30/2014 7:10:00,4/30/2014 7:29:00
NULL,NULL,ginesgabarron@hotmail.com,2.46,1,2,9/9/2017,9/9/2016,6/25/2014 20:10:00,7/4/2014 15:18:00
Mika,Ishikawa,rs283428@td6.so-net.ne.jp,4.99,1,2,12/1/2017,1/12/2016,12/7/2014 18:38:00,1/26/2016 19:51:00
NULL,NULL,a0922006063@yahoo.com.tw,2.59,1,5,8/23/2017,8/23/2016,1/13/2015 12:40:00,8/15/2015 9:16:00
伊婷,李,yiting.lee@gmail.com,3.31,1,7,3/18/2017,3/18/2016,2/17/2015 18:04:00,9/22/2016 18:21:00
mengping,yang,pinbabypin@gmail.com,3.38,1,2,2/14/2017,2/15/2016,3/21/2015 10:42:00,2/5/2016 11:49:00
NULL,NULL,rebecca0523@mail2000.com.tw,3.1,1,1,5/15/2017,5/15/2016,5/8/2015 9:10:00,5/20/2015 20:50:00
NULL,NULL,cgoy1496@gmail.com,0.91,1,3,6/9/2017,9/6/2016,6/6/2015 12:03:00,1/1/1970 5:30:00
선진,방,rmfdl83@naver.com,11.83,1,17,11/26/2017,11/26/2016,6/6/2015 17:14:00,8/25/2016 10:32:00
lauren,havas,laurenhavas@hotmail.com,3.53,1,2,6/16/2017,6/16/2016,6/9/2015 13:49:00,1/1/1970 5:30:00
哲郎,水村,tetsuzm.31@gmail.com,3.13,1,2,11/9/2017,9/11/2016,11/5/2015 19:48:00,3/28/2016 4:43:00
NULL,NULL,jditel@aol.com,0.91,1,1,1/18/2017,1/19/2016,1/16/2016 19:38:00,1/16/2016 19:49:00
NULL,NULL,missytikal@yahoo.com,2.19,1,1,3/15/2017,3/15/2016,1/18/2016 8:01:00,1/1/1970 5:30:00
NULL,NULL,traceybjonp@bigpond.com,0,1,1,1/19/2017,1/20/2016,1/19/2016 11:20:00,1/1/1970 5:30:00
NULL,NULL,hey.jisung@gmail.com,6.05,1,1,11/9/2017,9/11/2016,1/21/2016 18:45:00,1/1/1970 5:30:00
NULL,NULL,sharon-9@gmx.de,11.11,1,1,1/26/2017,1/27/2016,1/22/2016 17:30:00,1/1/1970 5:30:00
NULL,NULL,prunus-dukis.314.w_w_fu@docomo.ne.jp,0,1,1,2/1/2017,2/2/2016,1/24/2016 13:43:00,1/1/1970 5:30:00
聡実,原,sa.tomyum.516@gmail.com,0.84,1,1,1/25/2017,1/26/2016,1/24/2016 14:11:00,1/30/2016 7:59:00
NULL,NULL,11franklinc@gmail.com,0.71,1,1,2/8/2017,9/2/2016,2/2/2016 9:48:00,2/22/2016 22:30:00
Lata,Mercedes,chelelei2009@hotmail.fr,2.71,1,2,2/25/2017,2/26/2016,2/7/2016 4:21:00,1/1/1970 5:30:00
NULL,NULL,4995oana@jcom.zaq.ne.jp,0.73,1,2,3/1/2017,1/3/2016,2/7/2016 18:10:00,1/1/1970 5:30:00
NULL,NULL,hanadisch@gmail.com,1.96,1,1,2/9/2017,2/10/2016,2/8/2016 14:17:00,1/1/1970 5:30:00
NULL,NULL,timothypleejr@gmail.com,0.7,1,1,2/23/2017,2/24/2016,2/15/2016 13:26:00,1/1/1970 5:30:00
Debra,Curry,deccurry@gmail.com,0.57,1,1,2/21/2017,2/22/2016,2/15/2016 23:38:00,1/1/1970 5:30:00
Karin,Schulz,schulz-hvx@t-online.de,0.44,1,1,3/10/2017,3/10/2016,2/17/2016 21:45:00,2/22/2016 0:57:00
NULL,NULL,abujirou@hotmail.com,13.6,1,1,2/26/2017,2/26/2016,2/20/2016 18:09:00,1/1/1970 5:30:00
NULL,NULL,yaoj13@wfu.edu,2,1,2,2/23/2017,2/25/2016,2/21/2016 8:25:00,2/21/2016 8:29:00
Tracey,Rogers,poohpanda34@outlook.com,0.72,1,1,3/16/2017,3/16/2016,3/3/2016 7:38:00,3/26/2016 12:38:00
NULL,NULL,siren_gerl@yahoo.com.sg,0,1,2,3/14/2017,3/14/2016,3/7/2016 15:16:00,3/8/2016 14:25:00
NULL,NULL,floriokenya@gmail.com,0.86,1,1,3/15/2017,3/15/2016,3/12/2016 0:33:00,3/12/2016 13:10:00
NULL,NULL,ellena454@hotmail.com,0,1,1,4/8/2017,8/4/2016,3/15/2016 19:48:00,3/17/2016 19:04:00
NULL,NULL,crocketk@gmail.com,0.91,1,1,3/18/2017,3/18/2016,3/15/2016 23:42:00,3/17/2016 3:33:00
NULL,NULL,anton2g@gmail.com,0.24,1,1,3/18/2017,3/18/2016,3/16/2016 23:23:00,1/1/1970 5:30:00
Sohan,Majok,sourabh@ranosys.com,0,1,5,3/17/2017,3/18/2016,3/17/2016 17:03:00,3/17/2016 18:40:00
Sri,Sukaseh,sri_sarah@hotmail.com,0.71,1,1,4/1/2017,4/1/2016,3/18/2016 12:27:00,4/2/2016 19:56:00
Yehuda,Orr,yehudaorr@gmail.com,0.53,1,2,6/29/2017,6/29/2016,3/18/2016 21:17:00,6/24/2016 21:02:00
Laylee,Asgari,laylee@segment.com,3.6,1,2,5/23/2017,5/23/2016,3/18/2016 22:50:00,5/18/2016 3:49:00
NULL,NULL,muybien-kazmin@gc4.so-net.ne.jp,8.32,1,1,4/4/2017,4/4/2016,3/22/2016 9:51:00,3/22/2016 10:01:00
賢婷,毛,momo_0805@hotmail.com,3.18,1,2,3/30/2017,3/30/2016,3/22/2016 18:17:00,3/24/2016 12:19:00
Mark,Dougherty,xyzmoonunit@hotmail.com,1.35,1,1,4/7/2017,7/4/2016,3/24/2016 20:41:00,4/15/2016 5:54:00
NULL,NULL,anniesinclair@hotmail.com,1.58,1,1,3/30/2017,3/30/2016,3/25/2016 21:29:00,1/1/1970 5:30:00
NULL,NULL,oyvind.eggen@gmail.com,0.24,1,1,4/29/2017,4/29/2016,4/5/2016 13:05:00,4/5/2016 13:09:00
NULL,NULL,jonnyv@gmail.com,0.25,1,1,4/11/2017,4/11/2016,4/6/2016 12:09:00,4/12/2016 4:16:00
Joo Ha,Song,aegean7@outlook.com,0.24,1,1,4/13/2017,4/13/2016,4/6/2016 22:16:00,4/6/2016 22:17:00
NULL,NULL,katherine.khoe@gmail.com,8.69,1,1,5/4/2017,4/5/2016,4/14/2016 20:46:00,1/1/1970 5:30:00
Wooseok,Kang,kws@ygs.co.kr,1.99,1,1,4/20/2017,4/20/2016,4/17/2016 5:52:00,4/17/2016 18:47:00
HUI-HSIN,HSU,synn0527@hotmail.com,0.36,1,1,4/28/2017,4/28/2016,4/22/2016 0:05:00,4/22/2016 0:06:00
EDITH,HUGENTOBLER,hugi@uitikon.ch,1.22,1,1,5/3/2017,3/5/2016,4/27/2016 14:25:00,1/1/1970 5:30:00
NULL,NULL,k.bannatyne@xtra.co.nz,1.83,1,1,5/6/2017,6/5/2016,4/28/2016 4:54:00,1/1/1970 5:30:00
NULL,NULL,gshria@hotmail.com,2.05,1,1,5/4/2017,4/5/2016,4/30/2016 18:53:00,1/1/1970 5:30:00
NULL,NULL,doggfatherj@hotmail.com,0.25,1,1,5/4/2017,4/5/2016,5/2/2016 11:24:00,1/1/1970 5:30:00
NULL,NULL,sunnynyc3@gmail.com,5.91,1,1,5/10/2017,10/5/2016,5/3/2016 0:16:00,1/1/1970 5:30:00
NULL,NULL,chuhuiyus@gmail.com,2.09,1,1,5/9/2017,9/5/2016,5/6/2016 14:06:00,1/1/1970 5:30:00
Min Kyoung,Kang,foxy0721@naver.com,1.28,1,2,5/27/2017,5/27/2016,5/13/2016 6:38:00,5/16/2016 6:22:00
NULL,NULL,karae101@adam.com.au,2.05,1,1,5/30/2017,5/30/2016,5/13/2016 9:01:00,8/23/2016 5:06:00
NULL,NULL,lynn.reinheimer@gmail.com,5.33,1,1,5/25/2017,5/25/2016,5/14/2016 0:11:00,1/1/1970 5:30:00
NULL,NULL,rob82414@yahoo.com.tw,4.88,1,1,5/20/2017,5/20/2016,5/16/2016 17:23:00,5/25/2016 9:30:00
NULL,NULL,drew@benchmarquegroup.com.au,0.97,1,1,5/23/2017,5/23/2016,5/18/2016 17:24:00,1/1/1970 5:30:00
Alain,Rin Chan Loc,alainrin@gmail.com,2.05,1,1,5/27/2017,5/27/2016,5/25/2016 20:06:00,1/1/1970 5:30:00
Belinda,Kirley,little_miss_bj@yahoo.com.au,1.48,1,1,6/10/2017,10/6/2016,5/27/2016 19:11:00,1/1/1970 5:30:00
Min Sook,Park,messenger0320@gmail.com,5.44,1,3,6/8/2017,6/8/2016,5/28/2016 21:30:00,9/21/2016 14:52:00
Rob,Fallows,robertfallows2@hotmail.com,2.79,1,1,6/1/2017,1/6/2016,5/31/2016 1:01:00,6/7/2016 16:19:00
NULL,NULL,gracesung1029@gmail.com,4.01,1,1,6/6/2017,6/6/2016,6/1/2016 8:49:00,1/1/1970 5:30:00
NULL,NULL,fiona.earle@hotmail.com,1.04,1,1,6/8/2017,8/6/2016,6/5/2016 12:00:00,1/1/1970 5:30:00
NULL,NULL,franziska_kuerschner@yahoo.de,7.45,1,1,11/9/2017,9/11/2016,6/6/2016 9:52:00,1/1/1970 5:30:00
NULL,NULL,eureka_vivian@yahoo.com,6.93,1,1,6/23/2017,6/23/2016,6/18/2016 11:13:00,1/1/1970 5:30:00
欣穎,蔣,xanthe02141016@gmail.com,0.92,1,1,6/23/2017,6/23/2016,6/20/2016 12:43:00,6/20/2016 12:43:00
Suchitra,Boppana,suchitraboppana@yahoo.com,11.21,1,2,7/4/2017,4/7/2016,6/22/2016 4:13:00,9/16/2016 7:08:00
NULL,NULL,f0967033@yahoo.co.jp,0.32,1,1,7/11/2017,7/11/2016,7/4/2016 7:16:00,1/1/1970 5:30:00
NULL,NULL,13200372@life.hkbu.edu.hk,1.11,1,1,7/15/2017,7/15/2016,7/14/2016 20:41:00,7/18/2016 17:23:00
NULL,NULL,zenon3576@naver.com,1.28,1,1,7/22/2017,7/22/2016,7/15/2016 12:26:00,1/1/1970 5:30:00
NULL,NULL,a.wursthorn@orange.com,0.5,1,1,7/21/2017,7/21/2016,7/19/2016 18:33:00,1/1/1970 5:30:00
Faiq,Faizan,sanjamkohli31@yahoo.com,0.25,1,1,7/26/2017,7/26/2016,7/21/2016 20:11:00,1/1/1970 5:30:00
Debbie,West,debbie_m_west@hotmail.com,2.12,1,1,8/5/2017,8/5/2016,7/22/2016 6:51:00,7/22/2016 6:53:00
文錦,張,13913124123@139.com,2.48,1,4,7/29/2017,7/29/2016,7/22/2016 19:41:00,7/22/2016 19:41:00
NULL,NULL,margicosgrove@yahoo.com,3.82,1,1,8/3/2017,3/8/2016,7/30/2016 7:37:00,7/30/2016 7:46:00
琲兒,徐,berta6692@hotmail.com,2.05,1,1,8/1/2017,1/8/2016,7/30/2016 16:42:00,1/1/1970 5:30:00
NULL,NULL,iparrart@gmail.com,1.05,1,1,8/5/2017,5/8/2016,8/4/2016 11:35:00,8/7/2016 13:46:00
Sabrina,Aguado,sabrina.aguado@yahoo.fr,0.57,1,1,8/16/2017,8/16/2016,8/9/2016 14:55:00,8/17/2016 11:55:00
Libby,Macbeth,macbethsbrew@hotmail.com,1.55,1,1,8/10/2017,10/8/2016,8/9/2016 15:40:00,1/1/1970 5:30:00
Cameron,Cooney,leighantonello@gmail.com,5.29,1,1,8/22/2017,8/22/2016,8/16/2016 9:35:00,8/16/2016 10:58:00
NULL,NULL,warniercatherine@gmail.com,5.05,1,1,8/22/2017,8/22/2016,8/16/2016 14:50:00,1/1/1970 5:30:00
NULL,NULL,chiemochizuki@hotmail.com,0.96,1,1,8/19/2017,8/19/2016,8/18/2016 10:57:00,8/18/2016 11:02:00
Leah,Molseed,leah.molseed@gmail.com,0.79,1,1,8/24/2017,8/24/2016,8/19/2016 4:15:00,1/1/1970 5:30:00
NULL,NULL,jazzlyndon@gmail.com,2.03,1,1,8/24/2017,8/24/2016,8/22/2016 17:33:00,1/1/1970 5:30:00
NULL,NULL,i.diestel@gmx.net,0.54,1,1,8/24/2017,8/24/2016,8/22/2016 21:33:00,1/1/1970 5:30:00
NULL,NULL,robcildarwin@aapt.net.au,1.61,1,1,8/26/2017,8/26/2016,8/25/2016 9:34:00,9/1/2016 14:14:00
NULL,NULL,astorga.vergara@gmail.com,2.06,1,1,9/2/2017,2/9/2016,8/30/2016 19:06:00,9/5/2016 15:58:00
Angela,Pfister,angy_schwery22@hotmail.com,1.96,1,1,9/2/2017,2/9/2016,8/30/2016 23:11:00,9/6/2016 23:56:00
NULL,NULL,andrea_bernhard91@web.de,0.85,1,1,9/14/2017,9/14/2016,9/12/2016 1:09:00,1/1/1970 5:30:00
Thomas,Glynn,glynnt54@gmail.com,0.2,1,1,9/16/2017,9/16/2016,9/14/2016 5:40:00,1/1/1970 5:30:00
Isha,York,ishayork454@gmail.com,5.26,1,1,9/23/2017,9/23/2016,9/17/2016 23:07:00,9/26/2016 1:17:00
NULL,NULL,clattanand@gmail.com,0.71,1,1,9/20/2017,9/20/2016,9/18/2016 2:36:00,1/1/1970 5:30:00
Jurgita,Rastauskaite,jurgita_zusi@yahoo.com,1.55,1,1,9/26/2017,9/26/2016,9/23/2016 19:31:00,9/23/2016 19:33:00
NULL,NULL,dikirtema@hotmail.com,0.49,1,1,10/4/2017,4/10/2016,10/2/2016 11:24:00,10/7/2016 10:10:00
NULL,NULL,aotravel@tpg.com.au,3.87,1,1,10/11/2017,11/10/2016,10/8/2016 15:23:00,10/14/2016 15:25:00
政宜,郭,joey5681@ms49.hinet.net,1.14,1,1,10/25/2017,10/25/2016,10/11/2016 12:03:00,10/11/2016 12:06:00
Andrea,Dozzi,john.a.odwyer@gmail.com,1.75,1,1,10/25/2017,10/25/2016,10/12/2016 9:46:00,10/27/2016 13:13:00
MK,White,matthewwhite12@outlook.com,2.37,1,1,11/1/2017,11/1/2016,10/27/2016 12:08:00,1/1/1970 5:30:00
ming,li,frank_liming@hotmail.com,3.52393,1,32,3/14/2017,,8/22/2008 10:40:56,10/27/2016 6:03:03
葳,吕,alexandra1213@hotmail.com,5.60091,1,12,9/19/2017,,12/22/2008 13:39:42,12/13/2016 8:53:20
峥嵘,王,w_james@sina.com,105.988,1,16,3/1/2017,,9/5/2009 19:40:14,11/25/2016 9:36:46
晓涛,江,jack-w-wx@hotmail.com,14.7258,1,46,7/27/2017,,9/27/2012 14:29:37,12/28/2016 8:56:08
甜,田,chlljb1314@126.com,4.20934,1,2,5/25/2017,,4/3/2013 3:34:45,5/24/2016 10:32:36
陈,伟明,weimingch@hotmail.com,7.62942,1,4,4/7/2017,,5/16/2013 12:33:49,5/1/2016 7:57:52
帆,杨,fan246@gmail.com,4.11241,1,10,7/21/2017,,2/9/2014 8:48:04,11/23/2016 18:06:34
yuri,胡,180199754@qq.com,4.79089,1,13,9/7/2017,,12/16/2014 13:51:36,8/27/2016 14:14:20
慧,师,15210390183@139.com,22.3829,1,4,1/12/2017,,11/5/2015 13:54:49,1/23/2016 2:03:05
敏铭,陈,408939475@qq.com,14.8573,1,3,3/23/2017,,11/21/2015 18:01:30,4/24/2016 13:36:43
CHIANG SHEN,BEH,linlin777327@gmail.com,10.6341,1,2,2/23/2017,,2/10/2016 22:15:00,3/7/2016 14:05:43
维,高,gaowei-613@163.com,6.25169,1,3,2/28/2017,,2/26/2016 9:45:50,3/11/2016 6:37:53
XUEJING,CHEN,chenxuejing@hotmail.com,4.28549,1,4,9/21/2017,,3/25/2016 15:02:40,9/27/2016 8:57:21
杏惠,李,410148133@qq.com,1.12157,1,6,8/31/2017,,8/25/2016 15:48:34,9/9/2016 11:09:41
Francisco,Antinolo Rodriguez,fa076858@skynet.be,4.65,1,2,6/29/2017,6/29/2016,12/15/2007 13:22:42,3/27/2012 12:09:20
daniel,guirouard-aizèe,dany445@hotmail.fr,3.18,1,2,1/5/2018,01/05/2017 ,2/19/2012 16:16:53,6/16/2012 16:44:18
martine,verhoeven,martine.verhoeven@free.fr,11.1,1,5,4/20/2017,4/20/2016,2/20/2012 0:05:54,4/13/2016 17:26:48
PRUT,Patrice,chantal_deroland_perso@yahoo.fr,5.11,1,7,5/23/2017,5/23/2016,8/25/2012 15:12:22,5/18/2016 18:43:20
Nicolas,CASACCIA,nicolas.casaccia@gmail.com,3.68,1,2,1/12/2017,1/13/2016,11/17/2012 17:18:33,12/17/2012 12:15:56
PASCAL,LESCOUZERES,thomaslescouzeres@orange.fr,4.95,1,5,10/3/2017,10/03/2016 ,11/20/2012 20:14:21,9/30/2016 13:04:07
Catherine,Fujiwara,catherine.fujiwara@gmail.com,22.78,1,7,3/11/2017,11/3/2016,3/2/2013 6:06:39,3/9/2016 2:40:48
Maud,LEBLANC,daleblanc@wanadoo.fr,1.37,1,2,4/11/2017,11/4/2016,4/9/2013 18:02:02,5/10/2014 19:03:17
GILBERT,JACQUOT,gil.jac050@orange.fr,10.33,1,3,11/2/2017,2/11/2016,6/25/2013 21:09:13,11/1/2016 1:54:29
NULL,NULL,mmaunier@free.fr,0.7,1,5,1/14/2017,1/15/2016,4/27/2014 13:31:44,12/23/2015 15:18:14
Josée,Lemonde,jlemonde2@gmail.com,8.72,1,5,4/28/2017,4/28/2016,1/23/2015 8:41:49,5/18/2016 5:07:34
ANTOINE,LESCHALLIER DE LISLE,delisle.com@orange.fr,14.73,1,4,12/9/2017,9/12/2016,2/21/2015 22:52:36,2/27/2016 12:49:54
Ulrich,Sompapa,sompapa.ulrich@gmail.com,1.18,1,4,1/17/2017,01/18/2016 ,1/17/2016 2:46:24,1/27/2016 17:10:00
ALAIN,COULON,al.coulon@mls.nc,3.56,1,2,1/20/2017,1/21/2016,1/19/2016 10:29:08,1/19/2016 10:29:08
Véronique,DESCHAMPS,verodeschamps8@gmail.com,0.44,1,2,2/4/2017,5/2/2016,2/4/2016 12:55:58,2/4/2016 12:56:57
Sylvie,Tixier,sylvietixier@orange.fr,2.69,1,2,6/1/2017,1/6/2016,5/27/2016 16:43:20,5/27/2016 16:43:20
Frédéric,BAILE,frederic.baile@neuf.fr,4.58,1,2,6/27/2017,6/27/2016,6/6/2016 14:15:12,7/10/2016 13:28:30
Nicolas,Guenardeau,nicolas.guen.toul@orange.fr,8.95,1,2,8/8/2017,2/12/2016,7/8/2016 14:57:33,8/6/2016 23:48:39
NULL,NULL,brunocosm@neuf.fr,8.67,1,4,8/25/2017,8/25/2016,7/23/2016 3:01:48,8/23/2016 23:55:46
Régiane,MORAES DE ANDRADE,regiane_973@hotmail.fr,0.32,1,3,7/25/2017,07/25/2016 ,7/24/2016 20:17:51,8/5/2016 20:49:10
Michele,Bleichner,bleichnermichele@orange.fr,29.08,1,5,10/14/2017,11/17/2016,7/27/2016 14:01:27,10/13/2016 19:16:15
NATEA,CHEBRET,cnatea@yahoo.fr,7.01,1,3,9/12/2017,12/9/2016,7/28/2016 9:40:36,8/17/2016 5:45:34
Said,BOULAKHSAS,almaazim@live.fr,2.02,1,2,9/27/2017,9/27/2016,9/8/2016 15:07:44,10/4/2016 8:49:09
Kotchakon,Klaklang,ka0.k@hotmail.fr,6.33,1,2,10/5/2017,5/10/2016,10/1/2016 17:25:16,10/2/2016 16:57:19
ｎａｏｋｏ,ｓａｉｔｏ,kiaora-tikinao@hotmail.co.jp,13.7,1,0,5/3/2017,,3/21/2007 17:39:27,4/18/2016 18:08:02
俊明,河村,tkawamura@octn.jp,4.73,1,0,7/14/2017,,4/17/2007 22:16:02,7/10/2016 17:23:48
Kiyoshi,YAMAMOTO,ykiyoshi@palette.plala.or.jp,5.8,1,0,5/26/2017,,5/28/2007 20:11:52,5/17/2016 20:20:49
TAMAE,ito,tamae-t@olive.plala.or.jp,10.31,1,0,2/3/2017,,8/10/2007 3:29:17,10/16/2016 15:29:43
kuniko,Tanifuji,kuniko01@wave.plala.or.jp,2.06,1,0,9/5/2017,,10/19/2007 16:02:27,9/3/2016 11:42:02
Daisuke Sugie,杉江 大介,aiue5094@yahoo.co.jp,4.11,1,0,5/20/2017,,2/2/2008 8:50:09,10/26/2016 18:37:03
Akiko,Ando,barbie.1219.ker@gmail.com,2.37,1,0,5/27/2017,,2/21/2008 9:25:11,5/31/2016 7:47:09
Tomoko,Sukenobu,tomotheattacks@gmail.com,0,1,0,1/19/2038,,2/27/2008 2:13:18,1/24/2016 23:28:31
山下,弘規,hiro-wanwan2@kve.biglobe.ne.jp,4.67,1,0,9/5/2017,,7/22/2008 12:18:35,8/29/2016 19:56:16
TOMOYUKI,MASUDA,tokitokitokki1@jcom.home.ne.jp,15.56,1,0,6/13/2017,,8/17/2008 19:19:07,6/12/2016 8:48:18
原,典子,nononorico@hotmail.com,1.05,1,0,5/30/2017,,12/27/2008 19:10:43,6/4/2016 18:08:02
佐藤,洋子,happaneko@hotmail.com,10.95,1,0,10/17/2017,,1/20/2009 22:51:04,10/11/2016 15:01:05
貴子（takako）,佐藤(sato),satpon_dayo@yahoo.co.jp,3.62,1,0,1/19/2038,,2/8/2009 8:59:50,6/11/2016 15:33:59
池田（Ikeda),汎（Hiroshi ),hike248@tbc.t-com.ne.jp,19.84,1,0,1/5/2017,,2/12/2009 17:21:10,10/31/2016 17:30:39
塩野,勝美,k_shiono@js8.so-net.ne.jp,22.74,1,0,9/26/2017,,2/16/2009 21:38:31,9/24/2016 20:10:58
藤咲,敏子,moon-city@hotmail.co.jp,2.58,1,0,2/3/2017,,3/30/2009 11:04:58,7/12/2016 6:59:22
yukiko,iwai,fqmyw202@yahoo.co.jp,10.09,1,0,9/26/2017,,6/5/2009 4:13:23,9/26/2016 14:04:28
岩立,ふみ子,iwasama@kj8.so-net.ne.jp,7.48,1,0,8/30/2017,,10/8/2009 10:03:40,8/25/2016 12:50:02
Yuko　Hondoh,本藤 ゆうこ,ykho_jno18@yahoo.co.jp,3.57,1,0,4/11/2017,,12/16/2009 9:56:25,4/8/2016 9:19:19
チョウ,タンリ,tzhang17@hotmail.co.jp,0.27,1,0,1/19/2038,,2/13/2010 14:16:42,7/7/2016 4:14:40
英雄,中村,nkmr.s@d9.dion.ne.jp,9.56,1,0,4/28/2017,,3/18/2010 7:41:36,5/3/2016 16:28:35
Tetsuya Iijima,飯島　哲也,fkmcangulon@gmail.com,17.26,1,0,1/22/2026,,4/26/2010 1:44:27,4/11/2016 21:16:44
Junko Ishii,石井　順子,jun17iii@ybb.ne.jp,2.14,1,0,9/7/2017,,11/20/2010 12:52:46,9/5/2016 7:21:10
Masanori Fukuzumi,福住　正則,auckobe@yahoo.co.jp,0.55,1,0,10/5/2017,,11/29/2010 14:45:07,9/28/2016 14:17:12
Toyo Noguchi,野口　東陽,toyoo97@hotmail.com,3.11,1,0,2/3/2017,,6/12/2011 5:38:47,1/31/2016 19:05:14
HIdefumi Minemura,峯村　英史,ufb0001@gmail.com,6.53,1,0,5/4/2017,,8/12/2011 19:23:57,4/27/2016 21:43:48
Noriko Nakatsuka,中塚典子,nonnonhair@gmail.com,6.1,1,0,1/13/2017,,10/16/2011 13:01:13,1/2/2016 17:15:29
Megumi Hasegawa,長谷川　恵,megumi6122@yahoo.co.jp,6.44,1,0,1/12/2017,,11/10/2011 18:13:31,1/7/2016 19:12:27
misako kawasaki,川崎　みさ子,k-kawasaki@celery.ocn.ne.jp,7.3,1,0,8/22/2017,,11/12/2011 19:40:53,8/19/2016 5:26:59
ATSUKO HASHIMOTO,橋本　敦子,rusty219@jcom.home.ne.jp,3.99,1,0,7/18/2017,,11/29/2011 21:02:50,7/16/2016 13:35:17
SHIA　YAMAGUCHI,山口　紫亜,ujigawashia@gmail.com,6.25,1,0,5/6/2017,,3/17/2012 20:48:43,7/23/2016 17:24:08
nagano miyo,長野　みよ,mimi727129@yahoo.co.jp,8.87,1,0,9/30/2017,,10/1/2012 2:42:13,9/26/2016 9:43:51
Toshio Yanagi,柳 利男,yanagi.toshio@krf.biglobe.ne.jp,0.99,1,0,9/12/2017,,11/9/2012 6:02:58,9/10/2016 5:43:19
Nobuyuki Iwai,岩井信幸,tubara_ma@yahoo.co.jp,2.08,1,0,6/1/2017,,1/3/2013 6:04:25,5/31/2016 14:38:23
Akiko Kondo,近藤亜希子,xx.ak1c0.xx@gmail.com,32.12,1,0,10/17/2017,,2/26/2013 17:56:00,10/14/2016 17:29:24
Yuriko Yoshida,吉田　有理子,yuriko_hirase@fullhousecorp.jp,12.5,1,0,8/12/2017,,5/1/2013 9:53:08,5/6/2016 9:42:26
Kenichiro TANI,谷 健一郎,taniken@mac.com,0.19,1,0,6/9/2017,,5/14/2013 11:46:57,6/8/2016 22:51:55
Ｉｚｕｍｉ,Ａｋｉｍｏｔｏ,jseiichi@bronze.ocn.ne.jp,17.08,1,0,1/19/2038,,6/3/2013 11:06:32,6/26/2016 12:47:42
Naoko Madachi,眞舘　尚子,nao721@hotmail.com,10.95,1,0,6/23/2017,,6/17/2013 11:20:56,9/18/2016 10:25:14
Kanna Hirota,廣田　十月,info@home-3.com,9.89,1,0,9/28/2017,,7/7/2013 20:40:12,9/20/2016 13:16:16
まゆみ,大橋,mayoumi.ohashi@yahoo.ne.jp,6.32,1,0,10/5/2017,,9/16/2013 19:42:32,10/1/2016 6:48:03
NULL,NULL,mawar78@lagoon.ocn.ne.jp,0.86,1,0,8/11/2017,,11/25/2013 12:09:37,8/7/2016 16:07:03
幹男,赤井,akaimikio@ybb.ne.jp,35.12,1,0,10/5/2017,,2/4/2014 7:44:07,10/3/2016 19:27:47
滋子,島田,oneninefivetwo_ten_shima@jcom.home.ne.jp,60.28,1,0,6/19/2026,,4/1/2014 18:36:26,11/2/2016 3:35:39
晴美,小林,varrely@docomo.ne.jp,3.79,1,0,2/11/2017,,9/14/2014 6:54:27,2/2/2016 11:07:17
FUSAKI,IYOTA,iyotafusaki@yahoo.co.jp,2.23,1,0,3/29/2017,,12/27/2014 10:45:26,3/25/2016 21:16:04
淳子,山本,mcbk1968@yahoo.co.jp,5.19,1,0,2/1/2017,,4/3/2015 21:01:12,1/29/2016 17:10:02
NULL,NULL,ryoubu01755@gmail.com,6.84,1,0,2/11/2017,,7/31/2015 12:23:22,9/13/2016 17:14:23
Shinobu,Oikawa,s.oikawa@serendipity-tky.jp,7.5,1,0,6/24/2017,,10/13/2015 6:28:06,6/24/2016 6:36:17
八重,永山,ewalunuma@icloud.com,2.21,1,0,12/19/2025,,11/29/2015 11:56:45,10/25/2016 8:54:48
motoko,imafuji,ganhana621@kjc.biglobe.ne.jp,1.02,1,0,1/13/2017,,1/12/2016 23:15:11,1/13/2016 5:20:34
和巳,榊原,qqfz7thr9@crest.ocn.ne.jp,1.38,1,0,2/1/2017,,1/28/2016 10:45:49,1/29/2016 11:22:13
淑子,猪飼,yoshiko@ikaisan.com,5.66,1,0,4/1/2017,,2/20/2016 16:07:50,2/20/2016 16:10:19
正秋,大倉,ma_okura@octn.jp,2.42,1,0,10/21/2017,,3/26/2016 2:43:52,3/26/2016 3:26:12
Kazuo Hayashi,林　和男,k-hayashi@bc4.so-net.ne.jp,3.57,1,0,10/25/2017,,3/28/2016 10:21:58,3/28/2016 10:21:58
三枝子,田中,unbeldi347@yahoo.co.jp,3.5,1,0,4/12/2017,,4/8/2016 18:40:01,4/16/2016 16:27:53
NULL,NULL,pianissimo@m8.gyao.ne.jp,19.86,1,0,5/15/2026,,5/16/2016 6:55:03,6/6/2016 6:50:01
まき,小倉,makikam@hotmail.com,2.41,1,0,6/17/2017,,6/17/2016 2:50:37,6/17/2016 2:50:37
井村,明子,kumquat358@yahoo.co.jp,0.39,1,0,6/27/2017,,6/19/2016 11:34:21,6/26/2016 16:43:11
NULL,NULL,lukanopapa@tone.ne.jp,3.43,1,0,7/27/2017,,7/9/2016 0:29:25,7/28/2016 1:29:38
伸尚,柴原,qqna68d9@earth.ocn.ne.jp,17.34,1,0,8/26/2017,,8/20/2016 4:52:43,8/21/2016 18:55:32
Gyeong-Jin,Kwon,jinuadz@hanmail.net,5.86,1,6,9/28/2017,,5/26/2005 18:57:17,9/28/2016
민정,김,veinelys@hanmail.net,9.78,1,3,6/27/2017,,9/25/2005 8:09:50,6/27/2016
여완,윤,yerwan7@hanmail.net,3.63,1,7,4/20/2017,,5/1/2006 19:52:16,4/21/2016
young-tae,KIM,hsjsk1@hanmail.net,10.15,1,22,1/25/2017,,7/18/2006 13:07:24,1/26/2016
moon soon,no,chlee831@naver.com,14.34,1,19,12/7/2017,,1/4/2007 13:20:13,12/07/2016 
병철,손,bcs0119@naver.com,7.8,1,3,6/15/2017,,3/27/2007 11:08:00,6/15/2016
진오,윤,100ho@naver.com,4.17,1,3,8/26/2017,,4/2/2007 20:18:43,8/26/2016
kiman,Jeon,kmjeon@keti.re.kr,4.96,1,4,10/28/2017,,4/24/2007 9:27:46,10/28/2016 
순자,정,jimin0623@gmail.com,30.52,1,16,12/19/2017,,8/3/2007 0:06:42,12/19/2016
미현,방,algusqkd@hanmail.net,8.16,1,15,6/29/2017,,12/28/2007 10:26:13,6/29/2016
선주,이,kartjoo@hanmail.net,2.53,1,4,3/30/2017,,2/13/2008 15:10:12,3/30/2016
Dong,Son,dearson1@hanmail.net,13.74,1,2,4/1/2017,,2/17/2008 9:58:13,1/4/2016
경미,심,paranmiroo@hanmail.net,9.24,1,6,10/3/2017,,7/17/2008 11:48:09,3/10/2016
지호,김,zelos@hanmail.net,9.53,1,4,8/24/2017,,9/16/2008 14:36:18,08/24/2016 
지현,안,ahnji1103@naver.com,2.62,1,7,10/6/2017,,12/11/2008 10:31:23,6/10/2016
혜정,최,sleepzzz@hanmail.net,6.23,1,6,6/2/2017,,1/3/2009 8:10:11,06/02/2016 
Kyong-Seon,AN,ksanne@naver.com,4.6,1,27,12/12/2017,,1/10/2009 14:47:44,12/12/2016
혜민,박,min38317@hotmail.com,3.4,1,10,8/22/2017,,2/8/2009 18:19:24,8/22/2016
(노현자),노,nhj123@nanet.go.kr,7.13,1,6,6/8/2017,,9/26/2009 9:41:00,8/6/2016
용회,구,yhgu@dreamwiz.com,18.46,1,14,12/12/2017,,9/26/2009 18:40:50,12/12/2016
경식,홍,kshong@kci.co.kr,4.36,1,4,11/16/2017,,11/2/2009 5:43:15,11/16/2016
효정,장,sweety131@naver.com,3.92,1,31,5/27/2017,,1/6/2010 8:15:39,05/27/2016 
문근,장,changmk43@gmail.com,18.74,1,7,4/5/2017,,4/8/2010 14:37:31,5/4/2016
Jeehoon,Ahn,ahnjh0710@hotmail.com,5.27,1,2,4/28/2017,,11/23/2010 7:46:33,04/28/2016 
준,이,pinklly77@hotmail.com,0,1,4,8/1/2017,,3/25/2012 5:57:01,1/8/2016
지혜,임,haha78_96@naver.com,0.63,1,14,10/6/2017,,1/22/2013 6:19:30,6/10/2016
주희,이,2000alex@hanmail.net,4.51,1,2,2/28/2017,,7/17/2013 11:08:39,2/29/2016
손용,김,oksudang2@hanmail.net,13.26,1,51,2/28/2017,,8/26/2013 14:23:35,02/29/2016 
철,배,nbaec@naver.com,6.81,1,13,2/11/2017,,1/8/2014 5:38:38,11/2/2016
용태,권,kwon6282@hotmail.com,2.6,1,6,8/31/2017,,12/13/2014 12:33:34,8/31/2016
SEUNGHYUN,MUN,razal@naver.com,15.02,1,12,2/28/2017,,6/15/2015 13:08:41,2/29/2016
Jisoo,Ahn,ahnjis@hotmail.com,3.38,1,13,6/2/2017,,7/15/2015 16:25:25,06/02/2016 
MIN A,HWANG,hemerald55@naver.com,3.86,1,3,6/23/2017,,7/20/2015 16:04:31,6/23/2016
so young,jeon,jeonso3@gmail.com,5,1,3,8/31/2017,,8/20/2015 14:45:28,8/31/2016
仁愛,金,mizzu97@i.softbank.jp,13.61,1,7,6/23/2017,,9/2/2015 18:46:09,6/23/2016
NULL,NULL,gggina@naver.com,1.02,1,2,9/12/2017,,10/13/2015 6:43:47,12/9/2016
민주,박,alswn9722@naver.com,8.85,1,7,12/12/2017,,10/21/2015 15:47:45,12/12/2016
미연,이,savvy-lee@hanmail.net,3.72,1,8,1/9/2018,,12/4/2015 19:21:09,9/1/2017
나윤,김,porka8284@gmail.com,2.48,1,4,5/9/2017,,12/20/2015 21:04:12,05/09/2016 
JoonSik,Park,biolamp72@naver.com,3.62,1,2,1/25/2017,,1/4/2016 17:32:30,1/26/2016
수진,박,soojin_kr@naver.com,24.4,1,3,2/28/2017,,1/26/2016 12:50:52,2/29/2016
Yeo Jung,Choi,cyjsw43@gmail.com,3.9,1,2,6/1/2017,,2/29/2016 20:50:56,1/6/2016
만종,박,bloom1113@naver.com,11.54,1,2,5/9/2017,,3/10/2016 13:05:53,9/5/2016
보람,윤,spinelbebe@naver.com,4.13,1,2,4/1/2017,,3/28/2016 17:54:01,1/4/2016
재원,김,kjh007ko@naver.com,10.17,1,2,4/7/2017,,4/1/2016 14:19:27,7/4/2016
린,김,rin_kim@naver.com,3.33,1,2,5/18/2017,,5/17/2016 6:47:51,5/18/2016
DoYoung,Kim,june696@naver.com,16.06,1,3,10/10/2017,,6/1/2016 20:15:10,10/10/2016 
지원,이,flower8450@naver.com,4.17,1,3,10/31/2017,,9/7/2016 17:47:35,10/31/2016 
deborah,kerr simpson,deb@pmc.net.nz,2.24,1,3,4/26/2017,,10/7/2013 3:02:39,4/26/2016
Anne,Hill,annieg.home@virgin.net,1.86,1,5,10/11/2017,,11/26/2013 18:22:50,7/11/2016
Mark,Stillwell,audrey.weekes@talktalk.net,0.42,1,2,1/5/2018,,12/18/2013 5:21:33,5/1/2017
Chia Chen,Hung,chajen0924@yahoo.com.tw,6.48,1,3,4/1/2017,,1/19/2014 12:49:51,4/1/2016
NULL,NULL,yeepunauyong@yahoo.com,3.93,1,4,7/18/2017,,1/20/2014 9:13:12,7/18/2016
Dale,Hindley,kristen.auckram@yahoo.com,0.62,1,2,2/11/2017,,2/5/2014 10:31:58,2/12/2016
Nanette,Killeen,gerardene@hotmail.com,4.24,1,6,7/7/2017,,3/24/2014 14:47:44,7/7/2016
Jennifer,Haworth,jenhaworth63@gmail.com,1.17,1,3,8/30/2017,,3/26/2014 13:01:03,8/30/2016
NULL,NULL,turtondtt@aol.com,1.83,1,3,5/6/2017,,4/1/2014 19:07:45,5/6/2016
sepideh,kassai,sepidehkassai@gmail.com,7.35,1,3,12/15/2017,,4/3/2014 3:21:06,12/15/2016
Yolanda Alicia,Liquin,omni.alicia@gmail.com,14.29,1,4,6/8/2017,,5/31/2016 23:13:43,6/8/2016 20:32:44
Takuto Onodera,小野寺　拓人,takuto0320@docomo.ne.jp,0,1,1,10/1/2017,,1/10/2016 13:13:14,NULL
Marianne,TEIXEIRA,marianne.noirt@gmail.com,0,1,1,4/2/2017,,2/4/2016 4:18:57,NULL
lyn,hartman,travellyngirl@hotmail.co.uk,4.13,1,1,10/2/2017,,2/10/2016 15:17:26,2/21/2016 9:02:50
Porokhnyuk Andrey,ポロフニュク　アンドレイ,japanpersonals@gmail.com,0,1,1,28/02/2017,,2/28/2016 22:46:03,2/29/2016 13:22:32
Caroline,Thrane,twocz@telus.net,1.55,1,1,16/03/2017,,3/16/2016 12:23:17,3/16/2016 12:26:29
Lisa,Edwards,edwards49ers@hotmail.co.uk,2.4,1,1,11/4/2017,,4/11/2016 7:45:53,NULL
Emma,Lees,rod.thomas@aut.ac.nz,2.1,1,1,13/04/2017,,4/13/2016 14:07:43,NULL
Michelle,Kellett,shell06_3@hotmail.com,1.65,1,1,19/04/2017,,4/19/2016 0:25:44,5/4/2016 22:06:58
Shevaun,Lomas,shevaunlomas@hotmail.com,0,1,1,19/04/2017,,4/19/2016 16:45:18,NULL
Ok Hyun,Choi,cokokh@hanmail.net,8.58,1,2,9/5/2017,,5/3/2016 22:40:25,6/10/2016 0:56:23
Akihiro Tamura,田村彰浩,tamura@hurray-law.com,3.93,1,1,27/05/2017,,5/27/2016 21:24:15,NULL
Tsubasa Sakamoto,坂本　翼,macho-doctor-jusyoku@hotmail.co.jp,2.31,1,1,6/6/2017,,6/6/2016 0:19:32,6/6/2016 0:21:26
Anthon,Fiume,anthonfiume@hotmail.com,0,1,1,7/6/2017,,6/7/2016 14:32:59,6/7/2016 14:35:30
Emma,Trousdale,emma.trousdale@hotmail.co.uk,3.88,1,1,21/06/2017,,6/21/2016 8:53:06,6/21/2016 9:07:45
Kotomi Isobe,礒部 琴美,pink.cotomi1203@ezweb.ne.jp,0.38,1,1,9/8/2017,,8/9/2016 0:03:02,8/21/2016 23:01:07
David,Walker,canadamuriel@hotmail.com,4,1,1,19/08/2017,,8/19/2016 7:22:38,8/19/2016 7:28:02
Rachel,Lee,rachellee1@yahoo.com,3.88,1,1,23/08/2017,,8/23/2016 13:06:43,NULL
Sally,George,sallygeorge30@gmail.com,0,1,1,27/09/2017,,9/27/2016 23:00:04,9/27/2016 23:06:21
Megan,ADAMSON,meganjadamson@gmail.com,0.21,1,1,25/10/2017,,10/25/2016 9:42:25,NULL
Carl,Villari,carlvillari@gmail.com,0.7,1,1,17/10/2017,,10/17/2016 16:41:17,10/17/2016 16:42:50
Lesley,Hallissey,lesley_hallissey@yahoo.co.uk,1.25,1,5,1/3/2017,1/3/2016,7/1/2007 4:03:38,3/26/2010 9:27:19
Lynda,Montague,lynmontague@hotmail.com,0.62,1,7,3/16/2017,3/16/2016,8/7/2007 9:01:36,3/16/2016 3:39:35
Chai,Kok Soon,connect2world@gmail.com,2.52,1,4,8/25/2017,8/25/2016,10/13/2008 16:16:54,10/17/2016 20:49:19
恵美,下田,harry40@hotmail.co.jp,1.41,1,5,1/27/2017,1/27/2016,3/5/2010 23:16:29,1/27/2016 14:51:32
yukiko yamada,山田祐基子,yukibabo918@yahoo.co.jp,6.8,1,10,7/6/2017,7/6/2016,1/29/2011 21:46:56,7/6/2016 18:38:03
Julie,Whibley,juliewhibley@bigpond.com,1.37,1,4,10/14/2017,10/14/2016,7/30/2012 17:51:23,10/14/2016 18:00:55
Geraldine,McCartin,caseygeri@hotmail.com,2.15,1,6,5/13/2017,5/13/2016,2/18/2013 17:32:52,5/13/2016 10:15:02
Donald,Haigh,donhaigh26@gmail.com,1.1,1,2,4/21/2017,4/21/2016,3/6/2013 3:46:00,3/6/2013 3:52:10
Jennifer,Kelly,jennifer.kelly9@gmail.com,1.45,1,4,8/1/2017,8/1/2016,4/6/2013 4:03:52,8/1/2016 7:12:49
chie kuroda,黒田　智恵,kuroneko.1977@gmail.com,17.31,1,4,3/5/2017,3/5/2016,2/9/2014 16:05:54,3/5/2016 22:43:53
Daun,Jeong,downlordmap@nate.com,0.62,1,2,3/10/2017,3/10/2016,4/10/2014 12:57:23,3/16/2016 0:13:41
liz,barker,lizbarker82@hotmail.com,1.45,1,7,6/9/2017,6/9/2016,8/14/2014 3:39:22,8/27/2014 9:58:38
Stephanie,Tölle,stephanie.toelle@gmx.ch,3.1,1,4,6/15/2017,6/15/2016,9/22/2014 8:45:34,6/15/2016 21:26:43
Patricia,Maxwell,patti46@hotmail.com,2.37,1,2,4/13/2017,4/13/2016,11/28/2014 5:01:17,4/13/2016 3:13:29
ANH T,NGUYEN,wiol_onio_h248@yahoo.com.vn,1.7,1,5,7/10/2017,7/10/2016,3/12/2015 9:24:36,7/10/2016 15:25:15
Kerry,Lincoln,kerry.lincoln86@gmail.com,2.12,1,3,7/17/2017,7/17/2016,4/5/2015 17:52:11,7/17/2016 19:25:15
Edward,Wong,edscissorshand@hotmail.com,1.76,1,4,8/3/2017,8/3/2016,8/13/2015 22:32:15,8/23/2016 3:19:44
Fiona,Budd,fionabudd14@gmail.com,4.07,1,3,3/6/2017,3/6/2016,9/4/2015 13:53:49,3/6/2016 19:37:57
John,Mathis,duggerpeter163@yahoo.com,0,1,1,1/10/2017,1/10/2016,1/10/2016 23:49:58,NULL
Debbie,Thompson,dmtlc2@yahoo.com.au,1.69,1,1,1/11/2017,1/11/2016,1/11/2016 18:47:14,1/11/2016 18:58:43
VIKTORIA,KELMAN,saminsurance@aol.com,1.95,1,1,1/13/2017,1/13/2016,1/13/2016 11:28:29,1/13/2016 11:34:17
Yuichiro Suzuki,鈴木 雄一朗,lucky7.sizuku-yoruichi@docomo.ne.jp,1.8,1,1,1/28/2017,1/28/2016,1/28/2016 9:57:07,2/7/2016 0:33:38
Nanami Saimei,西明 七海,s-unicorn@nifty.com,0.56,1,1,2/3/2017,2/3/2016,2/3/2016 17:10:47,2/3/2016 17:10:47
Peter,Herbert,lot5861@clear.net.nz,0.69,1,1,2/4/2017,2/4/2016,2/4/2016 9:35:15,2/4/2016 9:37:28
Nancy,Bachus,music@gwis.com,3.55,1,1,2/11/2017,2/11/2016,2/11/2016 16:26:21,NULL
Joom Bunga,El-Fouani,joomf@hotmail.com,1.4,1,2,8/19/2017,8/19/2016,3/1/2016 15:23:38,3/1/2016 15:36:27
Dag,Bjerke,dag.bjerke@telia.com,1.6,1,1,3/8/2017,3/8/2016,3/8/2016 19:40:02,3/8/2016 19:43:50
Robert,Curry,jacquesfavret077@yahoo.com,8.5,1,1,3/9/2017,3/9/2016,3/9/2016 6:41:25,3/9/2016 6:46:00
Guillermo,Espinel,adgdghe@yahoo.com,8.5,1,1,3/10/2017,3/10/2016,3/10/2016 23:00:09,3/10/2016 23:04:51
DI,WANG,waqian3185fcg@163.com,0,1,1,3/16/2017,3/16/2016,3/16/2016 6:05:35,3/16/2016 6:09:06
Linda,Woods,auntyjoy11@gmail.com,7.03,1,1,3/19/2017,3/19/2016,3/19/2016 3:13:08,3/19/2016 3:16:36
Janine,Bollee,gbollee@actrix.co.nz,2.04,1,1,3/22/2017,3/22/2016,3/22/2016 13:38:24,NULL
Phyllis,Mannay,phyllismannay@talktalk.net,0.62,1,1,3/23/2017,3/23/2016,3/23/2016 7:50:36,4/12/2016 2:36:29
Tsz Ting,Yung,fannieyung@yahoo.com.hk,0.28,1,1,3/31/2017,3/31/2016,3/31/2016 19:11:14,NULL
avani,patel,veronikaiparsons@yahoo.com,0,1,1,4/1/2017,4/1/2016,4/1/2016 5:56:04,4/1/2016 6:12:29
Bruce,Nicolson,bruce.nicolson@gmail.com,2.77,1,2,9/14/2017,9/14/2016,4/6/2016 14:54:56,4/19/2016 10:45:21
wendy,brown,wendy.brown4@ntlworld.com,1.15,1,1,4/11/2017,4/11/2016,4/11/2016 4:48:15,4/11/2016 4:53:02
Mariah,Danville,tamindekeenan009@yahoo.com,0,1,1,4/16/2017,4/16/2016,4/16/2016 6:16:20,4/16/2016 6:23:36
Beth,Hammond,bbhammond@kinect.co.nz,1.38,1,1,4/27/2017,4/27/2016,4/27/2016 9:55:10,4/27/2016 9:55:10
robert,ortiz,ashleymontelius@yahoo.com,0,1,1,4/28/2017,4/28/2016,4/28/2016 9:18:26,4/28/2016 9:23:06
Arganingrum,Swastari,mizz_arga@yahoo.com,0.5,1,1,5/8/2017,5/8/2016,5/8/2016 2:45:35,NULL
Darya,Kotlyarova,jrjstn@gmail.com,16.4,1,4,5/13/2017,5/13/2016,5/13/2016 1:38:38,NULL
Joanna,O’Neil,jojo.amy.oneil@gmail.com,0.69,1,1,5/19/2017,5/19/2016,5/19/2016 15:10:49,5/19/2016 15:12:04
Suzanne,Kennedy,skennedy555@gmail.com,0,1,1,5/30/2017,5/30/2016,5/30/2016 15:40:15,5/30/2016 15:45:21
Colin,Trayte,cht1@me.com,1.79,1,1,6/5/2017,6/5/2016,6/5/2016 5:48:17,6/5/2016 5:51:09
Caren,Pulma,keane_caren@yahoo.com,0.85,1,1,6/6/2017,6/6/2016,6/6/2016 0:35:11,NULL
Yuichi Kawano,河野裕一,kawano.yuichi@otsuka.jp,5.88,1,1,6/8/2017,6/8/2016,6/8/2016 21:59:19,NULL
Carolyne,Vigon,carolyne@associationconcepts.ca,9.9,1,1,6/9/2017,6/9/2016,6/9/2016 2:47:32,6/9/2016 2:50:12
Lavina,Webb,lavina_webb@hotmail.com,2.95,1,1,6/9/2017,6/9/2016,6/9/2016 23:29:28,6/9/2016 23:39:38
Damien,Tammer,kerrywashingtong@yahoo.com,0,1,1,6/14/2017,6/14/2016,6/14/2016 22:39:27,6/14/2016 22:43:03
Beth,Ezell,bezell@cox.net,3.55,1,1,6/20/2017,6/20/2016,6/20/2016 11:15:25,6/20/2016 11:19:47
Kihoon,Kim,build123@nate.com,2.27,1,1,6/22/2017,6/22/2016,6/22/2016 22:03:30,7/21/2016 4:17:47
Melinda,boote,lisawashingtong@yahoo.com,0,1,1,6/29/2017,6/29/2016,6/29/2016 7:09:12,6/29/2016 7:13:12
Iain,Watson,iain.watson@t-online.de,2.74,1,1,7/14/2017,7/14/2016,7/14/2016 9:20:21,7/25/2016 7:48:57
atefeh,ayeghi,atefeh.sa33@yahoo.com,0.97,1,1,7/26/2017,7/26/2016,7/26/2016 9:50:10,NULL
Blair,Robertson,blair.robertson.dbj@gmail.com,4.25,1,1,8/2/2017,8/2/2016,8/2/2016 20:52:51,8/2/2016 20:55:21
Edina,Do,zold_esgreen@yahoo.co.nz,3.5,1,1,8/4/2017,8/4/2016,8/4/2016 17:11:20,NULL
Kana Nomoto,野本可奈,kanan@yb3.so-net.ne.jp,0.85,1,1,8/5/2017,8/5/2016,8/5/2016 17:55:38,NULL
은지,신,odetshin@naver.com,0.48,1,1,8/11/2017,8/11/2016,8/11/2016 1:45:20,8/11/2016 1:49:02
Shane,Gall,shane.gall1@gmail.com,0.97,1,1,8/11/2017,8/11/2016,8/11/2016 17:12:04,8/11/2016 17:13:17
Irmatati,Tjuatja,veronica_irmatati@yahoo.co.id,1.55,1,1,8/23/2017,8/23/2016,8/23/2016 2:09:36,8/23/2016 2:15:47
ann,Mann,geoffanndrake@aol.com,2.85,1,1,8/27/2017,8/27/2016,8/27/2016 4:26:11,NULL
David,McKirdy,bonnie18@yahoo.com,0,1,1,8/31/2017,8/31/2016,8/31/2016 8:08:07,8/31/2016 8:10:14
Paku,Moua,pakumoua@yahoo.com,0,1,1,9/5/2017,9/5/2016,9/5/2016 8:17:25,NULL
Helen,Teague,helz4short@gmail.com,0.69,1,1,9/5/2017,9/5/2016,9/5/2016 17:12:42,NULL
jose,teran,wankinfey@gmail.com,0,1,1,9/6/2017,9/6/2016,9/6/2016 4:04:02,9/6/2016 4:05:15
Julie,Simpson,juliesimpsonart@gmail.com,1.2,1,1,9/12/2017,9/12/2016,9/12/2016 19:52:31,9/12/2016 19:59:47
amal,besaid,amal.besaid@gmail.com,0,1,1,10/6/2017,10/6/2016,10/5/2016 10:53:20,10/6/2016 4:22:45
Sandy,Parr,chrisparr@telkomsa.net,0.75,1,1,10/15/2017,10/15/2016,10/15/2016 1:21:41,10/15/2016 1:26:49
Matt,Berry,matt.berry@se1.bp.com,0,1,2,1/4/2017,,12/30/2015 5:34:36,12/30/2015 5:35:31
Vanesa,Davila Albertini,vada78@hotmail.com,0,1,3,1/4/2017,,4/18/2012 11:03:04,1/2/2016 7:36:13
Susan,Ellis,spellis@spellis.plus.com,0,1,3,1/4/2017,,11/28/2010 23:24:12,1/4/2016 23:13:55
Mei Yan Susan,Tam,suedy224@yahoo.com.hk,0,1,2,1/6/2017,,1/4/2016 17:20:10,1/13/2016 15:44:31
Jane,Barr,louise.humphreys@hotmail.co.uk,0,1,2,1/6/2017,,1/4/2011 16:38:50,1/7/2016 15:47:00
Anna,Bates,annabanana1977@hotmail.co.uk,7.68,1,2,1/12/2017,,12/7/2015 18:24:51,1/8/2016 19:45:58
Rolf,Wachsmann,r.wachsmann@t-online.de,1.71,1,2,1/12/2017,,1/12/2016 16:17:44,1/12/2016 20:00:20
晓珂,杨,ekrisyang@hotmail.com,21.43,1,14,1/13/2017,,2/28/2014 14:38:07,12/28/2015 14:54:02
Cynthia,Lepetit,deelep@xtra.co.nz,2.57,1,2,1/14/2017,,8/4/2015 4:23:40,8/4/2015 4:37:07
Catherine,Rzecki,catherine.rzecki@bigpond.com,2.52,1,2,1/14/2017,,1/4/2016 2:26:03,1/4/2016 3:10:46
WONG,SIEW HIE,wshie@hotmail.com,9.42,1,2,1/14/2017,,1/8/2016 18:40:45,2/2/2016 21:52:31
Henrik,Jensen,henri-jensen@hotmail.com,7.82,1,2,1/17/2017,,10/25/2014 18:49:09,1/17/2016 17:59:08
NULL,NULL,rmyqk508@yahoo.co.jp,11.13,1,2,1/18/2017,,10/8/2015 6:54:13,1/12/2016 19:26:40
Jade,Li,jadeli8213@gmail.com,1.54,1,4,1/18/2017,,9/7/2015 18:03:47,1/17/2016 14:28:34
Linda,Goddard,hayewyre@att.net,5.33,1,2,1/20/2017,,9/21/2015 19:44:12,9/22/2015 2:04:33
Polly,Ambermoon,planetpolly@gmail.com,9.35,1,7,1/20/2017,,8/16/2014 8:27:30,1/14/2016 10:16:27
Rita,Choi,rita@wantton.com.hk,4.92,1,2,1/20/2017,,12/11/2015 13:32:58,1/15/2016 13:48:33
NULL,NULL,pinagarasi@hotmail.com,1.81,1,10,1/21/2017,,1/14/2014 11:45:05,9/16/2016 13:37:26
Edward,Chuh,sally2014nigeria@gmail.com,1.25,1,3,1/24/2017,,1/22/2016 4:32:48,1/24/2016 0:06:11
Jim,Whiting,jwhiting1958@yahoo.com,0.62,1,2,1/26/2017,,11/5/2012 19:01:37,1/27/2016 11:56:00
Robin,Gordon,robin-gordon@talktalk.net,2.51,1,2,1/27/2017,,5/7/2013 14:17:44,1/28/2016 1:56:49
Peter,Edmonds,peteredmonds39@ymail.com,1.56,1,3,2/1/2017,,1/29/2016 21:57:19,1/29/2016 22:01:37
ELIZABETH,SCHAUER,jamselizsch@aol.com,5.8,1,3,2/1/2017,,6/4/2014 7:15:08,2/15/2016 0:08:04
Carol,Easter,easterca@ptd.net,4.14,1,2,2/2/2017,,7/18/2015 20:59:16,1/28/2016 7:01:20
NULL,NULL,nihil@orcon.net.nz,1.38,1,3,2/9/2017,,8/27/2013 12:29:09,4/7/2014 14:29:16
Monique,LEFEBVRE,monique.lefebvre105@yahoo.fr,0.75,1,3,2/9/2017,,12/11/2014 9:03:21,2/9/2016 8:51:06
NULL,NULL,anderssonake@imboks.com,8.51,1,3,2/10/2017,,1/31/2016 3:33:13,2/18/2016 23:28:31
Zhihan,Wu,lishangtian@gmail.com,2.37,1,2,2/11/2017,,12/11/2015 10:01:31,2/10/2016 3:05:40
Elena,Kagkou Diakosavva,elena_kag@hotmail.com,17.44,1,2,2/11/2017,,2/23/2010 21:15:50,2/29/2016 20:21:12
Sonja,Adamek,sonja.adamek@aptc-nz.com,6.78,1,11,2/16/2017,,10/10/2013 7:03:13,2/12/2016 9:49:33
NULL,NULL,saisai888@yahoo.com,6.48,1,2,2/17/2017,,9/16/2014 7:42:28,9/24/2014 19:38:56
Maneewan,Larsen,manee@ufoweb.dk,5.52,1,4,2/18/2017,,5/18/2015 20:36:48,2/9/2016 0:29:25
Misako,Matsumoto,misakom@yahoo.co.jp,25.05,1,2,2/23/2017,,4/11/2008 19:09:21,2/4/2012 9:50:34
Yeon Min,Kim,mobipact@gmail.com,9.46,1,2,2/23/2017,,9/9/2010 20:00:18,2/13/2016 2:54:26
Chorong,Kim,crkim1120@gmail.com,4.06,1,3,2/23/2017,,12/4/2015 14:27:55,2/14/2016 16:07:27
Jongbin,Park,jbini73@gmail.com,5.79,1,2,2/23/2017,,2/11/2016 15:52:43,2/17/2016 9:16:25
NULL,NULL,saudalshammari60@gmail.com,42.52,1,10,2/23/2017,,1/17/2014 19:22:13,2/21/2016 17:04:41
Nirvana,Pilkington,greentara23@hotmail.com,3.71,1,2,2/23/2017,,2/20/2016 3:06:55,2/21/2016 18:50:46
Zhang,Feng hua,775262887@qq.com,2.87,1,3,2/23/2017,,2/22/2016 7:29:05,2/25/2016 12:19:58
Rini,Yulianingsih,rini2d@ub.ac.id,2.06,1,3,2/23/2017,,12/8/2015 7:20:03,3/15/2016 11:43:50
Tina c/o Rico Aruanno,Aruanno,aruanno@live.dk,3.52,1,2,2/24/2017,,2/22/2016 21:06:13,2/22/2016 21:06:13
Wayne,Colgan,wrcolgan@outlook.com,11.95,1,3,2/25/2017,,5/21/2014 16:59:44,6/3/2014 13:06:08
Chua,Yien lin,irinichua@hotmail.com,5.52,1,9,2/25/2017,,7/27/2014 11:54:20,2/22/2016 13:07:16
lan,tran,june_lantran@yahoo.com,4.44,1,3,2/28/2017,,10/9/2015 9:11:52,1/21/2016 5:02:40
Mary,Chan,totoromary1@gmail.com,6.48,1,3,2/28/2017,,2/22/2016 10:33:07,2/22/2016 10:38:43
이아론,Lee,ainz@paran.com,6.94,1,6,2/28/2017,,2/23/2009 16:20:32,10/10/2016 1:44:23
Sung Kyu,Yim,yimeric@yahoo.com,2.87,1,8,3/2/2017,,2/23/2016 18:14:47,2/23/2016 18:14:47
Anna,Prokopchuk,anchik0828@yahoo.com,3.62,1,2,3/3/2017,,12/24/2013 22:36:11,1/2/2014 9:21:11
Fernanda,Resende,feprates@gmail.com,3.09,1,4,3/4/2017,,12/8/2008 0:07:22,3/21/2012 2:40:59
XIAOWEN,HOU,hw705680@msn.com,3.66,1,2,3/4/2017,,12/12/2015 9:16:05,3/15/2016 9:05:37
NULL,NULL,laurenmintoff@yahoo.ca,0.66,1,4,3/7/2017,,9/11/2013 23:26:59,9/11/2013 23:36:23
Motoshiro,Tada,sgmanc@arion.ocn.ne.jp,11.96,1,4,3/7/2017,,2/11/2010 13:47:55,3/6/2016 8:18:08
Rosie,Ohlsson,rosieo@live.com.au,7.3,1,5,3/7/2017,,12/23/2013 8:52:56,10/27/2016 16:04:42
melaine,sohn,melaines@optusnet.com.au,4.55,1,2,3/9/2017,,8/4/2012 18:00:53,8/4/2012 18:03:10
mei,Lai,m3jk.lai@gmail.com,23.3,1,4,3/9/2017,,4/12/2015 4:26:49,4/12/2015 4:33:29
Yi-Qian,Lee,brayan0621@yahoo.com.tw,12.88,1,12,3/9/2017,,9/19/2008 0:00:17,3/10/2016 18:02:16
Bozena,Brzozowski,vitekbr@tpg.com.au,6.8,1,4,3/11/2017,,5/7/2007 18:58:39,3/8/2016 13:43:48
Jo'Anne,Langham,joanne.langham@y7mail.com,4.15,1,2,3/14/2017,,12/23/2015 4:24:49,3/13/2016 4:29:59
NULL,NULL,gaylenebarker@sbcglobal.net,2.82,1,2,3/22/2017,,2/15/2016 1:50:02,3/20/2016 2:32:25
Ruth,Tan,ruth@synergyworks.com.sg,6.48,1,3,3/22/2017,,8/27/2015 21:33:30,4/22/2016 6:17:12
NANCY,RINALDIS,islandlostatsea@outlook.com,5.04,1,13,3/23/2017,,2/22/2015 5:31:38,4/15/2016 13:06:05
مؤسسة ابو بكر بن عبود,بن عفيف,saeed_afif@hotmail.com,3.91,1,16,3/24/2017,,10/25/2015 12:23:48,3/31/2016 13:21:26
Kris,Ng,krishon94@yahoo.com,1.97,1,2,3/29/2017,,3/17/2016 4:19:43,3/22/2016 8:40:31
Albert,Volkerink,johanvolkerink@yahoo.com.au,1.33,1,2,3/29/2017,,3/27/2012 5:17:58,3/27/2016 16:16:00
Richard,Chaloner,rmchaloner@aol.com,4.61,1,7,3/29/2017,,8/29/2013 2:52:42,6/11/2016 22:20:57
NULL,NULL,thend61@gmail.com,6.95,1,5,3/29/2017,,2/24/2016 20:25:24,9/8/2016 12:28:09
NULL,NULL,tdix64@gmail.com,1.72,1,2,4/1/2017,,1/20/2016 17:24:57,4/1/2016 2:12:10
Hwei-Chun,Ma,sylviama.gm@gmail.com,27.73,1,12,4/3/2017,,8/22/2013 11:35:58,2/29/2016 16:14:52
Ramona,Gaudon,ramonagaudon@gmail.com,11.31,1,4,4/7/2017,,7/19/2014 18:37:55,11/30/2015 2:02:37
Carole,Geoghegan,carole.geoghegan@gmail.com,5.31,1,2,4/7/2017,,3/17/2016 11:26:54,3/17/2016 11:30:54
David,Simpson,gerswarrior@aol.com,3.03,1,2,4/7/2017,,3/24/2016 2:32:50,3/24/2016 2:32:50
Seok Ho,Bong,zergling082@naver.com,86.26,1,7,4/7/2017,,8/12/2009 17:28:37,3/27/2016 13:57:09
Pat,Matasso,pjmatasso@cox.net,5.93,1,2,4/7/2017,,6/16/2010 21:00:09,4/1/2016 23:38:16
NAM,HEE JOO,ppppx@hanmail.net,12.52,1,3,4/7/2017,,2/16/2016 7:56:36,10/31/2016 7:19:38
Greg,Anderson,aa425@bigpond.com,4.65,1,3,4/8/2017,,5/1/2013 10:26:29,5/1/2013 10:29:31
Wendi,Edwards,wendi.edwards@bigpond.com,3.77,1,7,4/8/2017,,2/5/2011 16:42:37,3/31/2016 14:06:11
Erwin,Reuter,erwinreuter@yahoo.de,6.64,1,10,4/8/2017,,6/8/2012 13:43:10,4/5/2016 20:59:59
Sarmad,Al Hares,sarmad.hares@gmail.com,16.23,1,4,4/11/2017,,10/29/2015 13:43:59,5/1/2016 13:11:11
Jon,Allen,jallen@pagoda-tech.com,0.73,1,2,4/12/2017,,1/9/2016 23:46:17,4/10/2016 5:39:14
Justyna,Jarmulowicz,j.jarmulowicz@yahoo.com,24.54,1,5,4/18/2017,,5/1/2015 16:16:08,1/15/2016 16:20:06
NULL,NULL,kelvin2000sg@gmail.com,0.98,1,2,4/18/2017,,7/16/2014 15:52:53,4/16/2016 10:55:18
mengguo,mengguo,dawn8892@gmail.com,4.7,1,11,4/20/2017,,1/25/2014 10:45:14,4/14/2016 19:32:55
NULL,NULL,emmar1605@gmail.com,4.67,1,2,4/21/2017,,7/18/2015 15:21:54,4/18/2016 7:35:54
Kate,Cockburn,kate.alves@hotmail.com,5.13,1,2,4/21/2017,,1/17/2016 22:03:06,4/18/2016 8:12:47
Xue Jiao,Chen,304865771@qq.com,9.86,1,7,4/21/2017,,11/17/2014 8:30:39,4/20/2016 6:04:59
Wenwei,Zheng,zbw0620@hotmail.com,1.12,1,5,4/21/2017,,4/16/2015 20:02:46,4/20/2016 13:55:39
Michelle,Lee,mklinhi@aol.com,22.81,1,4,4/21/2017,,4/3/2016 22:12:25,4/25/2016 9:08:32
Dana,Briscoe,dbridana@gmail.com,5.58,1,2,4/22/2017,,4/21/2016 17:23:05,4/21/2016 17:24:31
bertrand,mialaret,bertrand.mialaret@wanadoo.fr,3.26,1,7,4/26/2017,,6/27/2013 17:36:14,4/22/2016 16:29:51
Lesley,Patterson,pezleyis@shaw.ca,1.96,1,2,4/28/2017,,2/13/2015 5:20:39,4/28/2016 22:29:49
NULL,NULL,vivienneyounvv@gmail.com,0.6,1,2,4/28/2017,,7/16/2015 19:52:02,4/28/2016 22:40:27
欣,徐,961414077@qq.com,8.17,1,34,4/28/2017,,9/13/2014 16:20:14,4/29/2016 14:07:27
Jeannette,Thomas,jennylthomas@btinternet.com,0.98,1,6,4/28/2017,,10/20/2012 19:19:32,5/3/2016 15:35:37
Benjamin,Crew,jason.crew@gmail.com,10.5,1,3,4/29/2017,,4/26/2013 7:22:51,4/27/2016 2:17:00
NULL,NULL,slichosyt@gmail.com,5.34,1,2,4/29/2017,,2/26/2016 2:20:37,4/27/2016 2:57:06
Jeannie Sujin,Pak,sjeanniepak@gmail.com,6.46,1,2,5/3/2017,,4/24/2016 13:54:17,4/24/2016 20:12:09
Caroline,Humphreys,humphreyscaroline@ymail.com,3.33,1,12,5/3/2017,,1/8/2013 1:40:48,4/30/2016 20:28:51
Katrina,Vincze,katrina.vincze@auspost.com.au,2.01,1,10,5/5/2017,,7/25/2007 9:20:48,3/20/2014 8:53:07
NULL,NULL,david.costigan@paradise.net.nz,2.28,1,2,5/5/2017,,2/24/2016 3:06:47,2/24/2016 11:32:24
SUDHA,KARAN,karans@xtra.co.nz,5.51,1,3,5/5/2017,,1/20/2016 4:48:10,3/7/2016 4:59:51
Fabiola,Donnellan,biolabarra@yahoo.es,15.55,1,2,5/5/2017,,12/12/2015 3:38:24,4/6/2016 13:50:10
Chachreekan,Murray,max05@slingshot.co.nz,9,1,3,5/5/2017,,10/8/2014 8:04:53,4/29/2016 9:21:47
Agnes,Lim-Yu,bea1912@hotmail.com,4.26,1,2,5/5/2017,,4/19/2016 18:49:50,7/12/2016 6:37:59
Nicholas,Bucholtz,nicholas.bucholtz@gmail.com,3.38,1,3,5/9/2017,,4/5/2016 8:43:08,5/4/2016 6:43:31
Byung-Eun,Yoo,ppubyon@daum.net,0.91,1,7,5/9/2017,,6/6/2010 18:15:05,5/4/2016 15:51:36
Brenda,Lau,brendalau20@gmail.com,1.3,1,2,5/9/2017,,5/3/2011 12:44:42,5/6/2016 12:31:30
guoying,zheng,532927686@qq.com,1.32,1,2,5/9/2017,,5/8/2016 17:28:40,5/21/2016 9:13:52
Ozi,Masyhur,oji.msy@gmail.com,3.94,1,2,5/10/2017,,5/2/2016 17:23:44,5/2/2016 17:24:06
James,Baxter,jamiebaxter@hotmail.com,3.36,1,5,5/11/2017,,8/30/2013 6:28:22,5/10/2016 7:03:55
NULL,NULL,angelicabloom-3@y9.dion.ne.jp,2.18,1,2,5/13/2017,,7/18/2015 20:10:00,2/23/2016 10:34:09
Sangam,Salimath,a.kalasuramath@gmail.com,6.15,1,3,5/13/2017,,4/13/2016 2:24:53,5/12/2016 10:40:10
Irina,Ishaq,irina.ishaq@optusnet.com.au,4.11,1,6,5/16/2017,,4/21/2012 5:39:58,11/10/2015 15:42:41
CECILIA,SHA,yreniceotto@hotmail.com,8.25,1,3,5/16/2017,,12/17/2015 14:32:11,5/10/2016 10:41:18
Danith,Ham,danith.mystory@gmail.com,2.56,1,2,5/16/2017,,5/11/2016 22:57:07,5/11/2016 23:46:53
Aris,Gaasbeek,gatabv@hotmail.com,2.05,1,4,5/16/2017,,1/21/2015 22:55:31,5/15/2016 12:24:26
Luc,Sanders,ira@lucsanders.ca,1.53,1,9,5/16/2017,,11/27/2007 21:41:51,5/15/2016 19:29:48
Shu-Ting,Tsai,phantom3100@msn.com,1.18,1,2,5/16/2017,,5/13/2016 9:08:11,5/20/2016 5:03:47
Joanne,Law,cleolaw@hotmail.com,66.67,1,18,5/17/2017,,9/23/2014 20:22:35,5/17/2016 7:08:57
Lucila Kathrin,Dober Behrendt,claudia_burtt@hotmail.com,2.31,1,9,5/17/2017,,5/3/2011 14:41:52,5/17/2016 12:38:00
Donna,Aab,donnaaab@telus.net,12.48,1,2,5/20/2017,,4/17/2015 0:46:11,5/17/2016 2:22:37
Tae Young,Yang,tyang@mju.ac.kr,11.37,1,3,5/23/2017,,4/27/2016 15:37:28,5/9/2016 2:15:56
Jan,Green,miabay@optusnet.com.au,5.61,1,2,5/23/2017,,1/26/2016 4:01:18,5/22/2016 11:46:26
Anne,Wilson,annewilson@cfl.rr.com,0.8,1,2,5/25/2017,,1/4/2007 1:49:54,4/6/2013 2:24:31
Swee Khyun,Chen,melinda56@gmail.com,8.64,1,2,5/25/2017,,5/22/2016 6:23:41,6/2/2016 12:01:38
慧,董,hallendy@126.com,10.49,1,3,5/26/2017,,5/10/2016 6:51:39,5/16/2016 11:03:35
stacey,gorden,slg888@hotmail.com,1.49,1,2,5/26/2017,,8/23/2010 7:59:48,5/23/2016 14:32:01
QUOC ANH,DINH,lebonpain04@yahoo.co.nz,6.84,1,4,5/26/2017,,12/14/2014 0:31:33,6/4/2016 23:43:42
Danielle,Gallo,mobymoejoe@hotmail.com,4.29,1,4,5/27/2017,,5/15/2016 23:06:35,5/15/2016 23:08:20
I-Ting,YEN,smalltone@gmail.com,2.82,1,2,5/27/2017,,5/18/2016 19:14:17,5/18/2016 19:41:26
NULL,NULL,syltonk@bigpond.com,4.77,1,2,5/27/2017,,10/29/2013 17:05:34,5/31/2016 19:56:28
Robyn,Walker,robsieau@yahoo.com.au,3.86,1,11,5/30/2017,,7/28/2013 9:05:22,5/27/2016 8:32:04
Titikorn,Pimonpun,pplissy@yahoo.com,1.68,1,3,5/30/2017,,12/2/2013 17:04:58,5/28/2016 9:06:10
Joycelyn,Go,joycelyngo@yahoo.com,0.69,1,2,6/1/2017,,5/15/2016 8:26:09,5/27/2016 13:09:34
Salah,Soufane,soufanes@aim.com,26.6,1,6,6/1/2017,,9/12/2013 12:06:29,6/9/2016 14:43:08
Jackie,Grant,littlefoodiesj@gmail.com,4.44,1,3,6/2/2017,,4/9/2015 7:01:57,6/8/2016 9:54:17
Shamila,Sait,s.sait@ru.ac.za,1.6,1,3,6/7/2017,,5/17/2016 17:45:28,5/18/2016 20:15:13
Alix,Day,ps1@shaw.ca,14.97,1,6,6/7/2017,,12/30/2012 22:53:44,6/2/2016 8:59:54
sondos,ajail,wasanziad@yahoo.co.nz,0.82,1,7,6/7/2017,,6/29/2014 1:35:46,9/24/2016 13:27:01
Christina,Tenamu,kirihitenamu@gmail.com,2.91,1,3,6/9/2017,,10/7/2015 15:22:41,10/7/2015 15:23:38
ellaine,baik,ebaik02@hotmail.com,1.98,1,6,6/9/2017,,10/19/2011 22:09:09,6/1/2016 9:49:51
Yiqing,Luo,sarahslucky@gmail.com,10.45,1,7,6/9/2017,,9/7/2015 3:15:23,6/3/2016 6:34:15
Marlene,Hajek,marlene.hajek@gmx.at,14.25,1,6,6/9/2017,,6/1/2014 22:02:41,6/5/2016 12:08:29
NULL,NULL,allwoods.family@btinternet.com,9.9,1,3,6/13/2017,,5/13/2015 4:14:19,6/8/2016 17:38:23
Sue,Pedersen,suep123@gmail.com,4.51,1,12,6/20/2017,,3/29/2012 11:42:31,6/24/2016 8:48:25
Kirsty,Howe,howeakirsty@gmail.com,5,1,2,6/22/2017,,3/29/2016 16:34:04,6/17/2016 14:42:02
Maria,Horsfall,rchors4@shaw.ca,4.68,1,13,6/22/2017,,4/9/2010 8:33:22,6/18/2016 20:55:30
Kerstin,Herold,kerstin.d.herold@gmail.com,2.19,1,2,6/22/2017,,6/19/2016 14:18:58,6/19/2016 14:20:34
Lamya,Tolefat,lamoon00@hotmail.com,4.63,1,11,6/23/2017,,5/29/2010 0:52:07,6/24/2016 15:26:14
Bianca,Lee,lee_bianca@yahoo.com,13.41,1,7,6/23/2017,,4/21/2015 15:19:33,6/27/2016 18:53:55
Alison,Duthie,alltheduthies@bloocat.com,1.6,1,3,6/28/2017,,5/6/2007 23:32:01,7/2/2016 21:05:17
RAED,DEJANY,raed@allfs.com.au,7.02,1,5,6/29/2017,,2/5/2013 9:37:51,6/28/2016 10:56:30
Carolina,Olgers,strawberryfieldsfornow@gmail.com,6.4,1,2,7/1/2017,,6/2/2013 17:38:59,5/30/2016 19:33:24
Shelley,Hom,rchom@comcast.net,40.44,1,11,7/4/2017,,5/23/2008 10:42:41,4/3/2016 21:29:20
Sumei,Zhu,sumei.acfm@gmail.com,7.2,1,4,7/4/2017,,10/2/2015 18:03:31,7/3/2016 20:07:16
Renate,Schaub,liebeseller@aol.com,12.25,1,3,7/6/2017,,12/20/2009 17:06:37,3/27/2011 23:28:34
Steven,Cappellano,scappel80@hotmail.com,11.09,1,2,7/6/2017,,6/25/2016 20:16:14,7/12/2016 17:17:34
Roslina,Chai,rchaiss@gmail.com,40.69,1,5,7/6/2017,,12/22/2015 4:25:26,10/25/2016 4:48:38
NULL,NULL,rayplus@gmail.com,13.48,1,2,7/7/2017,,5/11/2016 6:58:48,7/4/2016 13:23:04
raelene,aquilina,zebony1@hotmail.com,13.51,1,9,7/8/2017,,9/3/2015 5:18:43,9/3/2015 13:41:13
Kathryn,G Hailey,kathryng.hailey@gmail.com,6.9,1,2,7/11/2017,,6/11/2009 13:41:48,8/28/2013 12:54:31
wong,sok wa,wongsokwa@gmail.com,2.33,1,6,7/11/2017,,6/9/2016 8:26:47,7/30/2016 15:57:33
Linda,Williams,shucheerleadermom@yahoo.com,12.77,1,3,7/14/2017,,5/10/2016 7:45:08,5/16/2016 22:18:59
Karel,Turecek,eva.tureckova@tiscali.cz,18.13,1,6,7/15/2017,,3/20/2011 16:02:40,7/6/2016 13:18:01
nathan,hahn,nthahn@gmail.com,5.23,1,2,7/15/2017,,6/22/2015 18:35:43,7/11/2016 18:52:12
Janjaree,Suwanmanee,sjanjaree@gmail.com,23.4,1,5,7/18/2017,,6/26/2012 19:02:26,7/10/2016 22:36:23
MASANORI,YAMAMOTO,masanori@themis.ocn.ne.jp,51.56,1,5,7/18/2017,,9/24/2015 15:07:38,10/20/2016 14:46:35
Renata,Silva,renata.da.motta.s@gmail.com,1.71,1,5,7/19/2017,,1/27/2016 22:13:04,7/14/2016 23:45:41
PEGGY,CHAN,peggyc625@yahoo.com,50.27,1,4,7/19/2017,,5/30/2016 16:53:46,7/16/2016 22:36:11
Dmitriy,Burtsev,dburtsev@hotmail.com,7.73,1,3,7/21/2017,,7/10/2013 15:26:00,10/10/2014 19:18:15
Michèle,MARIN - LUCAS,michele.marin@hotmail.fr,6.67,1,3,7/21/2017,,7/29/2015 10:28:30,12/2/2015 8:55:59
alejandro,perez,alejandroperez19763030@gmail.com,0.33,1,5,7/21/2017,,12/29/2015 4:12:25,7/21/2016 1:17:42
Rico,Bautista,rico.bautista427@gmail.com,2.42,1,2,7/21/2017,,7/18/2016 16:38:43,7/21/2016 4:00:23
William W I,Shiu,wwishiu@gmail.com,4.16,1,2,7/21/2017,,8/27/2012 21:33:15,9/1/2016 16:42:43
Rose,Holley,roseholleynz@yahoo.co.uk,3.38,1,2,7/21/2017,,4/21/2013 6:06:38,11/22/2016 12:10:00
Alpheus,Jessup,pussej1@verizon.net,1.93,1,3,7/22/2017,,4/30/2016 6:43:12,4/30/2016 6:45:45
NULL,NULL,amandavido85@gmail.com,3.24,1,2,7/25/2017,,3/11/2016 7:02:53,3/17/2016 4:04:44
Blanche,Thomas,canuckiwi73@gmail.com,1.68,1,4,7/25/2017,,11/16/2015 1:35:21,7/13/2016 18:00:27
Chrissy,Jones,frech@xtra.co.nz,1.22,1,2,7/25/2017,,1/10/2016 7:09:27,7/18/2016 4:24:07
NULL,NULL,miau_teng@hotmail.com,0.56,1,2,7/25/2017,,3/16/2014 14:00:09,7/25/2016 12:49:58
Phillip,Havill,havillp@paradise.net.nz,6.09,1,2,7/28/2017,,7/25/2016 16:10:24,7/25/2016 16:51:12
Vicky,Olson,ollie-littlewinger@hotmail.com,10.65,1,2,7/29/2017,,7/8/2016 17:03:18,7/26/2016 15:44:34
Edith,Sabanpan,edithapril_sabanpan@yahoo.com,4.51,1,2,7/29/2017,,7/26/2016 1:39:45,8/1/2016 1:24:37
Maliga,Ravi,maliga@tts.edu.sg,2.82,1,10,7/29/2017,,10/9/2015 9:12:22,8/3/2016 11:51:13
NULL,NULL,y_takashimizu@hotmail.com,11.63,1,8,7/29/2017,,3/27/2015 14:48:46,8/4/2016 9:54:15
NULL,NULL,tripletree@frontiernet.net,2.62,1,2,8/2/2017,,5/1/2016 19:15:08,7/30/2016 19:23:41
Gordana,Firulovic,vfgds@hotmail.com,4.83,1,3,8/4/2017,,3/9/2012 6:05:34,7/29/2016 16:38:54
MORRIS,CELIA,celiadmm953@gmail.com,11.05,1,7,8/5/2017,,8/4/2013 3:46:42,8/5/2016 16:14:00
Chetna,Hari,ch_etna@yahoo.com,4.51,1,2,8/8/2017,,7/12/2016 1:54:20,7/14/2016 14:34:59
Alex,Lago,alex_lago@hotmail.com,3.61,1,42,8/8/2017,,2/22/2013 6:23:28,8/10/2016 4:39:20
Chien Cho,Lo,clo2547@aol.com,5.03,1,2,8/9/2017,,8/9/2016 3:43:23,8/9/2016 3:45:51
andreas,pongratz,andi.pongratz@gmx.de,0.57,1,2,8/9/2017,,7/20/2016 13:59:18,8/10/2016 12:56:07
Debra,Vickery,scarlet42@att.net,4.39,1,4,8/11/2017,,3/12/2013 2:21:40,8/4/2016 7:50:17
CHEUNG,CONNIE,conniesycheung@netvigator.com,1.97,1,2,8/12/2017,,8/1/2016 18:06:47,8/4/2016 7:23:30
NULL,NULL,kawai@ebbb.us,23.56,1,20,8/12/2017,,6/2/2014 15:59:33,8/4/2016 13:39:30
chayada,pickup,chayada@live.co.uk,5.23,1,4,8/12/2017,,7/25/2015 4:28:31,8/7/2016 16:10:51
Supakit,Chompoorat,flyinggub@hotmail.com,1.43,1,10,8/12/2017,,9/16/2009 20:41:05,8/8/2016 20:24:17
EDIT,KERI,editildiko@yahoo.ca,14.84,1,11,8/12/2017,,8/3/2016 21:38:47,9/22/2016 22:49:10
Diane,McMahon,frankjmcmahon@bigpond.com,29.79,1,22,8/15/2017,,1/30/2013 7:00:23,8/2/2016 11:40:27
Eunmi,Lee,eunmileenz@yahoo.com,3.14,1,2,8/15/2017,,8/6/2010 9:09:20,8/8/2016 8:26:53
Alla,Gilbourd,trave1mg@yahoo.com,10.34,1,4,8/15/2017,,8/7/2011 15:09:19,8/11/2016 16:55:19
Melvin,Chow,melvinc@elecomes.com,19.67,1,3,8/16/2017,,5/13/2016 16:20:33,8/15/2016 16:52:41
Nive,Lemana,customerservice@allworldshops.com,0,1,129,8/16/2017,,8/19/2013 10:15:04,10/31/2016 1:39:04
Maggie,Duong,binjui@hotmail.com,22.28,1,12,8/22/2017,,9/27/2012 9:12:15,8/22/2014 5:36:20
EDTexpressCNSgtDGY,EDTexpressCNSgtDGY,295691919@qq.com,3.01,1,3,8/22/2017,,8/12/2016 19:57:12,8/15/2016 12:25:43
NULL,NULL,markjlang@yahoo.co.uk,9.99,1,6,8/22/2017,,2/16/2016 19:44:49,8/31/2016 2:10:11
Susan,Hou,susan@allworldshops.com,0,1,80,8/23/2017,,5/25/2013 4:00:58,10/31/2016 1:20:00
Steven,Roy,steven@stevenroy.ca,1,1,3,8/25/2017,,7/15/2012 19:35:58,8/22/2016 20:24:51
Ivan,"Neardny,Prof.",ivnera@online.no,0.5,1,5,8/26/2017,,11/9/2008 17:04:04,7/24/2011 16:39:37
Yongwon,Choi,cheywin@hotmail.com,5.39,1,3,8/26/2017,,8/23/2016 22:12:22,8/28/2016 22:01:52
Bruno,Quaglia,quagliar@gmail.com,87.21,1,5,8/29/2017,,5/24/2016 16:20:45,9/6/2016 21:30:19
abdullah,alfouzan,alfwzan1@gmail.com,7.01,1,2,8/29/2017,,8/23/2016 21:05:19,9/22/2016 3:34:20
NULL,NULL,rustyluckyfoxy@gmail.com,45.86,1,5,8/30/2017,,12/4/2015 22:16:29,8/25/2016 5:52:02
NULL,NULL,wayne.thoresen@gmail.com,1.23,1,3,8/30/2017,,11/14/2013 13:35:04,8/26/2016 1:45:55
Kunnikar,Kumrapich,koykoy1@hotmail.com,8.72,1,2,8/30/2017,,8/26/2016 2:09:06,10/23/2016 10:06:21
NULL,NULL,krystynaduch@gmail.com,5,1,4,8/31/2017,,11/30/2015 22:06:28,12/14/2015 22:36:51
Stacy,Park,staacypark@yahoo.com,26.32,1,6,8/31/2017,,5/25/2015 8:31:14,1/15/2016 3:08:51
bo,kim,bigboy96@naver.com,4.59,1,26,8/31/2017,,9/9/2014 11:18:04,8/22/2016 12:09:53
Renee,s,renee@allworldshops.com,0,1,5,9/1/2017,,6/3/2016 2:39:43,10/31/2016 5:01:20
Giorgio,Pozzi,gpz1969@icloud.com,1.07,1,2,9/2/2017,,2/3/2016 2:51:46,8/27/2016 1:57:51
Kathryn,vandenberg,kathryn.vandenberg@btinternet.com,6.27,1,8,9/2/2017,,1/29/2009 3:58:47,9/1/2016 18:06:44
Hongxia,Ma,tainanjing@vip.sina.com,32.47,1,24,9/5/2017,,12/2/2013 17:27:38,3/8/2016 9:19:01
Carolyn,Doran,genghis5@verizon.net,1.49,1,2,9/5/2017,,9/4/2016 22:04:44,9/15/2016 18:46:39
NULL,NULL,mdoehnert21@yahoo.com,1.95,1,2,9/6/2017,,8/31/2015 19:11:38,8/23/2016 18:22:35
Wai Lun,Yuen,willyuen@yahoo.com,4.64,1,2,9/6/2017,,10/24/2008 11:57:17,9/5/2016 7:17:54
Sandy,Lee,cobyyokis@gmail.com,13.76,1,4,9/6/2017,,6/15/2015 10:27:50,9/8/2016 4:12:45
Helen,Baker,brybak1@bigpond.net.au,0.51,1,2,9/12/2017,,12/8/2011 17:04:52,12/8/2011 17:08:04
혜경,이,mikaleemd@gmail.com,18.91,1,4,9/12/2017,,7/27/2016 8:20:16,9/5/2016 6:33:40
Mark,Pekin,mark.pekin@aad.gov.au,8.85,1,6,9/12/2017,,1/11/2012 9:09:33,9/6/2016 4:36:53
Siska,Parker,siska_parker@hotmail.com,57.19,1,11,9/12/2017,,6/15/2010 2:28:00,9/7/2016 7:43:37
Kyunghee,Kim,k6876@yongsan.go.kr,6.22,1,22,9/12/2017,,3/18/2013 5:11:27,9/9/2016 4:29:59
Shuk Mei,Chan,meimei_chanmimi@hotmail.com,5.68,1,5,9/12/2017,,2/25/2015 10:25:13,9/12/2016 9:26:54
Mattaneeya,Sarunsikarin,pat_oohhoo@hotmail.com,6.94,1,4,9/12/2017,,5/27/2015 13:39:44,9/30/2016 15:00:29
Marilyn,Hay,haymarilyn7@gmail.com,2.17,1,2,9/13/2017,,1/15/2013 3:51:41,8/28/2016 8:41:18
Judy Q,Oelke,quintana.judy@att.net,0.19,1,2,9/13/2017,,7/27/2016 3:32:34,9/7/2016 3:49:21
HTW,wdf,whjc2010@outlook.com,3.72,1,3,9/13/2017,,9/5/2016 9:38:45,9/14/2016 8:23:10
Avner,Shafrir,shavner@gmail.com,8.25,1,2,9/14/2017,,6/9/2016 17:01:00,9/13/2016 11:06:09
Connie,Peterson,dwolfe@lundberg.com,3.14,1,5,9/14/2017,,5/25/2016 1:32:43,9/14/2016 1:34:24
Bonnie,Chen,cmf33@qq.com,3.79,1,2,9/14/2017,,9/14/2016 4:02:24,9/14/2016 4:02:24
Richard,Austin,kyreema56@dodo.com.au,3.75,1,3,9/15/2017,,5/5/2012 17:58:09,4/10/2015 5:01:05
Annie,Wang,xinwang777@gmail.com,5.39,1,2,9/15/2017,,7/27/2016 3:14:25,9/6/2016 14:40:07
Jason,Lim,ktlim168@yahoo.com,2.94,1,5,9/16/2017,,6/13/2015 17:45:15,9/12/2016 21:32:56
Maxim,Kapatsina,progresmax@mail.ru,9.64,1,7,9/16/2017,,11/17/2009 23:31:28,9/17/2016 13:03:46
Daeseok,Kim,pungwoon2k@gmail.com,3.84,1,2,9/19/2017,,9/16/2016 9:31:35,9/16/2016 9:32:07
Laszlo,Fekete,fekete@gmx.ch,1.32,1,3,9/19/2017,,9/1/2012 18:07:22,9/17/2016 12:13:04
Florence,Yue,mikeflorence86@gmail.com,7.55,1,2,9/19/2017,,9/7/2016 18:24:13,9/21/2016 17:02:54
Eng Chye Eric,Tan,erictec@gmail.com,9.95,1,2,9/19/2017,,7/13/2015 20:34:26,9/27/2016 13:38:30
Amy,Zhao,amy.zhao@ncf.com.au,11.21,1,6,9/20/2017,,6/19/2014 17:59:56,9/9/2016 9:10:56
世川,蔡,caisc1968@sina.com,4.46,1,5,9/21/2017,,9/12/2016 18:01:04,9/14/2016 17:17:48
Nicole,Topfer,inzmumbai@hotmail.co.nz,9.96,1,3,9/21/2017,,3/9/2016 10:38:12,9/29/2016 8:28:55
Leeta,Rutherford,rutherford_lee@bigpond.com,6.16,1,8,9/22/2017,,4/13/2013 10:22:00,9/16/2016 11:52:17
NULL,NULL,pbrydie@bigpond.net.au,17.59,1,3,9/23/2017,,6/27/2016 6:55:38,9/23/2016 1:40:33
poonsak,ngakokaew,poonsak.n@jasmine.com,1.55,1,8,9/26/2017,,11/13/2013 7:45:33,9/24/2016 17:06:40
NULL,NULL,josswee@gmail.com,16.96,1,5,9/27/2017,,9/23/2015 10:21:09,6/22/2016 9:45:29
Karen,Huang,karen92131@hotmail.com,6.21,1,2,9/27/2017,,9/10/2016 8:41:38,9/26/2016 6:52:20
Hock,Kua,hz_00@hotmail.com,21.71,1,5,9/28/2017,,2/8/2011 17:16:31,4/29/2013 18:05:29
Katalin,Karikó,kariko@mail.med.upenn.edu,13.58,1,6,9/28/2017,,3/14/2012 6:52:12,9/24/2016 15:01:52
NULL,NULL,cjburton777@msn.com,6.09,1,2,9/29/2017,,5/8/2016 21:57:22,5/15/2016 21:44:05
Jane,Disis,ladyjane49@comcast.net,1.47,1,4,9/29/2017,,10/22/2009 7:55:53,9/28/2016 23:22:17
Roy,Damser,damser@sbcglobal.net,10.54,1,6,9/30/2017,,2/24/2010 3:15:54,9/26/2016 23:38:05
Gareth,Parsons,gareth_parsons@hotmail.com,2.08,1,5,10/3/2017,,4/21/2015 11:13:32,1/24/2016 6:33:59
Shirleyanne,Quinten,shirleyannequinten@hotmail.com,0.01,1,29,10/3/2017,,5/28/2012 17:57:23,7/13/2016 8:42:16
jackie,suarez,nephiece7@yahoo.com,4.56,1,2,10/5/2017,,8/7/2013 1:14:48,10/17/2016 10:29:55
Hesham,Mahgoub,hesham.mahgoub@dib.ae,16.22,1,2,10/5/2017,,12/26/2012 14:53:02,10/18/2016 16:25:36
Mary,Halim,marylmp@gmail.com,30.73,1,5,10/6/2017,,3/3/2016 21:17:21,7/7/2016 20:13:47
Ren,Witchell,renmystir@gmail.com,0.54,1,2,10/11/2017,,9/27/2016 13:40:56,10/2/2016 11:11:45
NULL,NULL,rnmorgan10@yahoo.com,10.97,1,2,10/11/2017,,3/31/2015 2:04:27,10/5/2016 20:40:02
NULL,NULL,tciallenturner@aol.com,9.6,1,2,10/11/2017,,9/27/2016 21:29:33,10/7/2016 4:15:54
Carol,Chow,cjchow@bigpond.net.au,13.39,1,4,10/12/2017,,9/28/2011 6:17:57,10/9/2016 9:19:09
Joon,Oh,ohjoonkr@hotmail.com,3.32,1,3,10/12/2017,,12/29/2010 17:06:51,10/10/2016 2:48:17
ana maria,andreiu,oanadub@yahoo.com,3.81,1,9,10/12/2017,,8/17/2011 3:09:22,10/11/2016 16:26:20
Jaehyeok,Choi,lilo0607@naver.com,3.7,1,2,10/12/2017,,10/9/2016 17:21:43,10/20/2016 10:53:30
NULL,NULL,kiyomi.m@yj8.so-net.ne.jp,18.94,1,2,10/13/2017,,12/14/2015 15:46:57,10/21/2016 9:23:05
KO-PING,HUANG,zenhan@hotmail.com,3.86,1,2,10/14/2017,,11/23/2015 0:58:46,7/8/2016 21:45:41
Alexander,Ratine,alexandre.ratine@xtra.co.nz,9.94,1,12,10/14/2017,,10/20/2014 1:41:07,10/13/2016 5:37:29
Sung,Choi,macko_css@yahoo.com,7.06,1,2,10/14/2017,,6/19/2016 8:57:58,10/13/2016 9:40:25
Pam,Howie,pamhowie@hotmail.com,7.03,1,2,10/14/2017,,8/4/2013 15:10:51,10/14/2016 13:42:00
jennine,o'driscoll,ojennine@yahoo.com,4.15,1,2,10/17/2017,,9/26/2016 6:19:26,10/11/2016 4:38:13
Willy,Schwendinger,bruno.schwendinger@arcadian.ch,13.03,1,6,10/17/2017,,12/23/2013 15:01:56,10/13/2016 21:16:37
NULL,NULL,hson0114@gmail.com,21.61,1,2,10/17/2017,,5/26/2016 6:18:15,10/16/2016 1:54:25
Hanh,Giang,hanhgiang307@gmail.com,6.3,1,8,10/18/2017,,3/17/2015 5:31:28,10/13/2016 22:13:04
Alessandra,Zanchi,zanchi.alessandra@libero.it,2.04,1,4,10/18/2017,,8/15/2008 19:23:47,10/17/2016 22:18:40
JIAE,SUBLETT,jiaekum@hotmail.com,4.91,1,15,10/19/2017,,6/30/2016 3:39:05,10/17/2016 5:58:37
Hui,Yut Wah,sam116a@yahoo.com.sg,3.66,1,23,10/19/2017,,12/1/2006 10:19:07,10/18/2016 6:59:04
Marcia,Lee,marcia@allworldshops.com,0,1,15,10/19/2017,,4/6/2016 5:22:00,10/31/2016 2:42:49
Craig,Panigiris,craigpanigiris@hotmail.com,1.56,1,3,10/19/2017,,7/15/2011 12:04:41,10/19/2016 11:48:00
NULL,NULL,stvnvanp@gmail.com,14.17,1,2,10/20/2017,,9/30/2016 10:43:49,10/17/2016 7:25:44
laurie,williamson,jilllaurie@westnet.com.au,7.94,1,5,10/20/2017,,5/2/2010 11:19:08,10/19/2016 14:45:08
Ray,Jones,rayld@btinternet.com,0.4,1,5,10/25/2017,,9/17/2009 22:21:27,9/11/2013 19:54:41
Chrissy,Smith,c.scovil@hotmail.com,1.52,1,4,10/26/2017,,10/12/2016 23:50:08,10/25/2016 21:18:54
Liuyun,Qu,wgqu@yahoo.com,3.64,1,4,10/26/2017,,7/2/2016 10:06:06,10/27/2016 18:39:39
Laura,Rouchou,laura.rouchou@hotmail.fr,21.94,1,8,10/27/2017,,9/14/2014 18:05:10,10/15/2015 17:22:19
Viola,Tudor,violatudor@gmail.com,7.38,1,3,10/28/2017,,10/15/2016 20:39:05,10/27/2016 13:43:04
MENGJIAO,TANG,mengjiao6520@gmail.com,2.65,1,5,10/31/2017,,10/19/2016 13:05:08,11/1/2016 11:03:21
Joyce,Lee,joyce@allworldshops.com,0,1,41,11/1/2017,,7/30/2013 9:01:43,9/13/2016 6:25:46
Paritta,Kijmahanon,preyapa_cmu@hotmail.com,1.72,1,4,11/2/2017,,11/17/2014 21:22:45,10/31/2016 6:51:37
Sandra,Downs,downss@bigpond.com,5.54,1,2,11/2/2017,,6/26/2016 10:39:16,11/1/2016 7:17:20
John,Whitcombe,j-whitcombe@sky.com,0.39,1,4,11/2/2017,,12/7/2008 17:06:36,11/2/2016 3:29:35
Reto,Haupt,reto.haupt@gmx.ch,35.27,1,2,11/5/2017,,1/8/2007 3:18:36,5/10/2016 17:54:23
Ann,Green,anngreen1@gmail.com,337.11,1,7,11/8/2017,,6/19/2013 0:16:58,11/8/2016 16:00:54
ABDULAZIZ,BAJANDOUH,aziz.bjn@gmail.com,47.2,1,16,11/10/2017,,12/25/2013 8:30:35,10/8/2016 10:00:21
SUNIM,MOON,fm@kizmedi.kr,32.57,1,4,11/11/2017,,7/12/2016 9:00:59,10/20/2016 5:11:10
NULL,NULL,isti_ch7@yahoo.co.jp,117.62,1,5,11/16/2017,,8/2/2015 17:08:36,11/4/2015 7:27:03
Andrew,Watson,awatson@newburygroup.com,17.88,1,3,12/6/2017,,12/11/2006 17:42:04,12/12/2015 1:04:06
Teri,Eden-Folse,fenn4@xtra.co.nz,0.55,1,15,12/9/2017,,1/6/2014 4:06:37,9/10/2016 6:27:12
NULL,NULL,amyles123@rogers.com,14.12,1,6,12/12/2017,,9/27/2016 3:13:04,10/26/2016 0:13:19
NULL,NULL,acusoc@yahoo.co.uk,28.52,1,4,12/14/2017,,10/9/2016 14:56:03,10/29/2016 16:00:04
lynn,HuangLingYing,a1982530@sh163.net,28.71,1,3,1/4/2018,,4/14/2016 9:57:22,10/27/2016 15:20:04
johnny,teo,sheryl_nana@hotmail.com,4.12,1,14,1/9/2018,,2/17/2012 16:26:52,9/12/2016 20:10:33
Rashed,Al Faraj,rfaraj@batelco.com.bh,0,1,42,10/25/2017,10/25/2016,7/17/2007 2:43:39,10/25/2016 2:37:17
Mee Yuk,Fung,aclc@jardines.com,19.27,1,32,9/23/2017,9/23/2016,12/3/2007 16:21:20,9/23/2016 13:23:58
TAKAKO,INOUE,doglab@arion.ocn.ne.jp,2.09,1,11,3/7/2017,3/7/2016,7/18/2008 20:04:23,3/7/2016 18:46:21
명걸,이,akgjsals@naver.com,4.15,1,8,6/19/2017,6/19/2016,8/18/2008 13:36:18,6/19/2016 0:45:15
kyeong-bok,kim,kbgung@hanmail.net,19.54,1,12,9/9/2017,9/9/2016,11/28/2008 13:46:34,9/19/2016 13:14:23
Regina,Clara,regiuy@hotmail.com,3.67,1,5,6/9/2017,6/9/2016,3/26/2009 10:10:26,6/11/2016 10:26:43
Douglas,Lee,fookdeck@pacbell.net,8.7,1,7,9/27/2017,9/27/2016,8/30/2009 17:44:18,9/27/2016 17:40:51
leslie,simpson,steveplace1@yahoo.com,4.25,1,12,5/26/2017,5/26/2016,9/18/2010 12:53:01,6/11/2016 12:43:48
Pia,Straub,pialstraub@sbcglobal.net,2.85,1,3,6/28/2017,6/28/2016,10/3/2011 15:16:56,NULL
MIN HO,SONG,klugsong@naver.com,5.3,1,10,9/19/2017,9/19/2016,11/12/2011 17:09:53,9/21/2016 16:45:18
Pierre,Zollikofer,plzolli@yahoo.fr,16.3,1,14,1/19/2017,1/19/2016,12/31/2011 3:30:51,9/7/2016 0:09:53
ＭｉｔｈｕｒｕＹａｎｏ,谷野充,yano-mi@navy.plala.or.jp,2.86,1,9,9/16/2017,9/16/2016,11/25/2012 22:01:26,9/16/2016 14:13:24
헌우,김,khun@snu.ac.kr,3.33,1,5,2/6/2017,2/6/2016,12/28/2012 1:33:46,2/6/2016 14:53:49
Takeshi Uehara,上原　武,pitin3099@yahoo.co.jp,10.09,1,4,3/10/2017,3/10/2016,2/4/2013 23:43:25,3/10/2016 20:07:13
Wing Yu,Chan,torichan@gmail.com,25.47,1,7,9/19/2017,9/19/2016,7/30/2013 18:59:53,10/8/2016 22:00:36
선민,황,hsm539@hanmail.net,4.27,1,4,10/29/2017,10/29/2016,8/30/2013 18:38:40,10/29/2016 2:01:58
Quanbin,LIU,andrewliu7@yahoo.com,16.5,1,6,12/27/2017,12/27/2016,7/8/2014 14:30:26,10/29/2016 16:45:56
Karin,Böhmer,hofmannboehmer@t-online.de,1.95,1,3,1/22/2017,1/22/2016,8/20/2014 5:04:43,6/11/2016 5:45:03
ManYee,Lam,ilovemanyee@gmail.com,35.34,1,3,7/12/2017,7/12/2016,9/14/2014 4:52:50,7/12/2016 21:03:49
Sachiko Tatsuno,立野 幸子,tatsukuros@gmail.com,16.93,1,3,9/9/2017,9/9/2016,10/23/2014 0:06:00,9/27/2016 19:08:09
Hoi Man,Lee,asuka_nippon@hotmail.com,16.89,1,4,1/17/2017,1/17/2016,11/23/2014 19:36:28,9/19/2016 6:39:02
ken Shiota,塩田　賢,ken_eit@yahoo.co.jp,17.05,1,3,2/11/2017,2/11/2016,12/3/2014 16:52:42,2/11/2016 17:04:06
Philippe,TUAL,p.tual@free.fr,20.52,1,3,6/30/2017,6/30/2016,12/22/2014 5:49:22,6/30/2016 1:08:06
Hideko Satou,佐藤　秀子,4398-hide@ezweb.ne.jp,1.62,1,7,4/9/2017,4/9/2016,3/18/2015 2:40:49,NULL
CRISTINA,MANRIQUE,friendlykristin@yahoo.com,1.2,1,4,8/3/2017,8/3/2016,3/18/2015 15:51:46,8/3/2016 17:51:26
Tomio Yamamoto,山本　富雄,yamamototo-1@mte.biglobe.ne.jp,2.14,1,2,6/4/2017,6/4/2016,4/22/2015 15:17:18,6/4/2016 14:11:01
준석,박,pjason@naver.com,4.17,1,2,2/26/2017,2/26/2016,7/19/2015 12:42:51,7/25/2016 5:19:57
Karin,Staehli,karin.staehli@gmail.com,21.04,1,2,5/19/2017,5/19/2016,8/13/2015 19:31:07,5/19/2016 23:09:35
Ellie,Dussek,elliedussek@hotmail.co.uk,0.43,1,2,1/12/2017,1/12/2016,9/5/2015 7:00:19,1/12/2016 9:51:45
玟萁,郭,vingi712@yahoo.com.tw,4.51,1,6,11/7/2017,11/7/2016,9/12/2015 20:21:39,8/31/2016 16:43:54
欽晃,蕭,chhsaio5842@yahoo.com.tw,3.38,1,2,7/16/2017,7/16/2016,9/25/2015 16:52:33,7/16/2016 13:32:06
Myungjin,Chun,mjjeon@lottechem.com,18.05,1,2,4/4/2017,4/4/2016,10/13/2015 19:43:25,4/4/2016 17:12:49
Phalla,Sem,thienthanh5955@gmail.com,8.3,1,6,4/16/2017,4/16/2016,10/30/2015 23:01:56,4/18/2016 0:03:34
kitou tosiyuki,キトウ　トシユキ,ten55-kit@elecity.com,6.03,1,2,6/9/2017,6/9/2016,12/18/2015 21:56:56,6/19/2016 16:02:49
Cheryl,Stroud,cgstroud@telusplanet.net,2.85,1,1,1/23/2017,1/23/2016,1/23/2016 7:51:13,1/23/2016 7:55:17
David,Punch,davidpunch24@gmail.com,2.2,1,1,1/5/2017,1/5/2016,1/5/2016 3:42:40,NULL
Caroline,Barker,caro_line_99@hotmail.com,0.8,1,1,1/6/2017,1/6/2016,1/6/2016 1:33:21,NULL
Kiwako Mase,間瀬 貴和子,keiemu23@live.jp,3.9,1,1,1/8/2017,1/8/2016,1/8/2016 19:08:11,1/8/2016 19:08:11
Jean,Yanik,jeanynk@ptd.net,1.15,1,1,1/13/2017,1/13/2016,1/13/2016 5:40:50,1/13/2016 5:40:50
STEFANO,ARECCO,s_arecco@infinito.it,16.4,1,1,1/21/2017,1/21/2016,1/21/2016 10:58:32,2/13/2016 23:38:59
iftikhar,hussain,iftikhar_agha@yahoo.com,0.62,1,1,1/23/2017,1/23/2016,1/23/2016 14:20:34,1/29/2016 22:03:50
Rebecca,Newey,bek_newey@telus.net,3.79,1,1,1/24/2017,1/24/2016,1/24/2016 7:31:29,1/24/2016 7:33:05
Agota,Repka,srepka@optonline.net,4.95,1,1,1/25/2017,1/25/2016,1/25/2016 11:04:14,NULL
Rosemary,Kenderdine,rpkenderdine@btinternet.com,2.9,1,1,1/28/2017,1/28/2016,1/28/2016 1:07:14,4/25/2016 0:42:43
Kathy,Kahny,kathytomaselli@gmail.com,2.45,1,1,1/29/2017,1/29/2016,1/29/2016 1:43:50,1/29/2016 1:54:16
Tadao Kubo,久保　忠雄,tadao-kubo@dune.ocn.ne.jp,2.69,1,1,2/4/2017,2/4/2016,2/4/2016 17:21:15,2/4/2016 18:08:11
Hanafi,Arhiari,hanafi.arhiari@yahoo.com,3.66,1,1,2/9/2017,2/9/2016,2/9/2016 0:12:40,2/15/2016 20:15:42
Gil,Marrero,gnvp59@gmail.com,3.05,1,1,2/18/2017,2/18/2016,2/18/2016 15:20:31,4/15/2016 17:06:59
Eunjoo,Kim,hiejkim@gmail.com,2.2,1,1,2/20/2017,2/20/2016,2/20/2016 16:17:40,2/20/2016 16:17:40
rodolfo,vilches,rudyvilches420@yahoo.com,2.15,1,1,2/20/2017,2/20/2016,2/20/2016 18:21:46,2/20/2016 18:45:00
FANNY,PARIS BOUDIAF,parisfanny@free.fr,2.47,1,2,2/21/2017,2/21/2016,2/21/2016 3:18:49,6/21/2016 1:29:02
주은,김,green@nhwm.com,7.1,1,1,2/23/2017,2/23/2016,2/23/2016 21:23:34,2/23/2016 21:31:52
pauline,smith,pauline.mcdermottsmith@gmail.com,1.45,1,1,2/25/2017,2/25/2016,2/25/2016 3:59:11,2/25/2016 4:02:06
Wayne,Perry,bubnbabe5467@hotmail.com,0.93,1,1,2/28/2017,2/28/2016,2/28/2016 22:23:31,2/28/2016 22:32:38
Cliff,Cook,hayley@nsi.co.nz,1.15,1,1,3/2/2017,3/2/2016,3/2/2016 11:11:41,3/2/2016 11:12:52
michael,roberts,mjroberts1985@gmail.com,1.54,1,1,3/2/2017,3/2/2016,3/2/2016 20:13:28,3/2/2016 20:16:38
Frank,McLean,fandgmclean@kinect.co.nz,0.9,1,1,3/8/2017,3/8/2016,3/8/2016 14:23:38,3/8/2016 14:27:16
jie,yao,njustyaojie@gmail.com,19.1,1,1,3/11/2017,3/11/2016,3/11/2016 10:41:55,3/18/2016 14:17:52
Dan,Mihailescu,danmihailescu@att.net,1.95,1,1,3/13/2017,11/13/2016,3/13/2016 15:13:45,3/13/2016 15:33:02
Vija,Bremanis,vija7@sbcglobal.net,4.4,1,1,3/13/2017,3/13/2016,3/13/2016 22:28:45,3/13/2016 22:35:20
Te Rua,Wallace,terua_wallace@live.com,1.6,1,1,3/16/2017,3/16/2016,3/16/2016 22:05:38,3/16/2016 22:18:47
iftikhar,bhatti,iftikhar14@netzero.com,4.25,1,1,3/18/2017,3/18/2016,3/18/2016 11:53:23,3/18/2016 11:58:18
H,Edge,hannahedge@hotmail.com,0.59,1,1,3/19/2017,3/19/2016,3/19/2016 23:03:23,3/22/2016 14:21:59
christophe,massias,massiascetv@yahoo.fr,3.47,1,1,3/21/2017,3/21/2016,3/21/2016 22:33:18,3/21/2016 22:41:40
Hannah,snell,hsnell2011@gmail.com,0.76,1,1,3/23/2017,3/23/2016,3/23/2016 11:10:21,3/23/2016 11:17:10
Bei,Chen,bchen2000us@gmail.com,2.4,1,1,3/29/2017,3/29/2016,3/29/2016 12:11:34,3/29/2016 12:13:32
Kasha,Park,kasha.park@henkel.com,1.18,1,1,4/1/2017,4/1/2016,4/1/2016 12:37:32,4/1/2016 12:40:30
Natalia,Abramishvili,uknatash@yahoo.co.uk,3.02,1,2,10/3/2017,10/3/2016,4/4/2016 8:19:07,10/3/2016 4:29:48
태환,노,roh612@naver.com,9.4,1,2,8/31/2017,8/31/2016,4/4/2016 11:27:31,8/31/2016 17:01:30
Puletto,Loreta,lory.isola@libero.it,2.4,1,1,4/7/2017,4/7/2016,4/7/2016 2:09:21,4/7/2016 2:19:08
HELENE,HARRISON,williamtharriso@wowway.com,1.1,1,1,4/7/2017,4/7/2016,4/7/2016 6:41:06,NULL
Angela,Oliver,angela.unz@xtra.co.nz,0.69,1,1,4/9/2017,4/9/2016,4/9/2016 12:27:31,4/9/2016 12:29:53
Yukiko Suzuki,鈴木　由紀子,hanaino@yahoo.co.jp,4.32,1,1,4/12/2017,4/12/2016,4/10/2016 9:55:28,4/12/2016 13:55:32
Sanja,Medich,sanja1959@yahoo.com,1.35,1,1,4/11/2017,4/11/2016,4/11/2016 1:54:05,4/11/2016 1:56:09
Jacqueline,Wiseblatt,paulws@hotmail.ca,6.6,1,1,4/11/2017,4/11/2016,4/11/2016 2:42:19,4/11/2016 2:58:07
彦青,刘,poetry678@hotmail.com,13.3,1,2,11/2/2017,11/2/2016,4/12/2016 13:29:12,11/2/2016 21:14:22
John,Hebrank,johnhebrank@yahoo.com,3.55,1,2,5/19/2017,5/19/2016,4/12/2016 19:27:33,5/19/2016 21:02:58
상택,이,sshadow81@naver.com,8.87,1,3,4/19/2017,4/19/2016,4/13/2016 16:43:09,4/19/2016 15:39:57
juliana,onisoru,fuffy78@att.net,17.55,1,2,4/15/2017,4/15/2016,4/14/2016 9:24:14,4/15/2016 1:14:55
Nancy,Dave,nadave5566@yahoo.com,2.85,1,1,4/14/2017,4/14/2016,4/14/2016 10:03:28,4/15/2016 6:40:28
STELLA,LEE,plslplal@yahoo.com,1.45,1,1,4/15/2017,4/15/2016,4/15/2016 17:19:10,4/15/2016 17:24:24
Young,Lee,rylee905@yahoo.com,13.8,1,1,4/18/2017,4/18/2016,4/18/2016 11:41:43,NULL
Stephanie,Piang Fah,stephcpf86@gmail.com,6,1,1,4/20/2017,4/20/2016,4/20/2016 2:15:11,NULL
Angela,Zumsteg,kittykabana@att.net,1.45,1,1,4/22/2017,4/22/2016,4/22/2016 5:54:38,4/22/2016 5:59:03
Reiko Narihisa,成久　玲子,narihisareirin@yahoo.co.jp,0.81,1,1,4/25/2017,4/25/2016,4/25/2016 5:16:33,NULL
효진,송,hyojinsg@naver.com,3.33,1,1,4/28/2017,4/28/2016,4/28/2016 19:02:51,4/28/2016 19:07:11
qingle,wei,happyle0929@hotmail.com,28.65,1,1,4/28/2017,4/28/2016,4/28/2016 23:16:20,5/7/2016 3:42:40
태환,노,lirun@naver.com,18.79,1,1,4/29/2017,4/29/2016,4/29/2016 15:12:05,4/29/2016 15:18:46
순갑,가,rktnsrkq@naver.com,1.77,1,1,5/1/2017,5/1/2016,4/30/2016 20:52:56,5/6/2016 18:46:13
Gyokuka Haku,白　玉花,okuhua913@yahoo.co.jp,1.97,1,2,8/5/2017,8/5/2016,5/2/2016 19:59:20,NULL
Rebecca,Dee-Would,deebecky@hotmail.co.uk,0.55,1,1,5/4/2017,5/4/2016,5/4/2016 15:46:06,5/4/2016 15:48:37
Louise,Cawley,loucawley40@gmail.com,1.87,1,1,5/4/2017,5/4/2016,5/4/2016 19:38:07,5/4/2016 19:42:12
Bjorn,Hilke,bjornhilke@gmail.com,3.55,1,1,5/6/2017,5/6/2016,5/6/2016 15:50:02,5/6/2016 15:54:04
Diya,Jolly,ritajolly30@gmail.com,1.1,1,1,5/7/2017,5/7/2016,5/7/2016 10:58:14,5/7/2016 11:06:45
John,Prendergast,johnpre2001@yahoo.com,0.62,1,1,5/8/2017,5/8/2016,5/8/2016 11:14:30,5/8/2016 11:21:42
Jaikumar Desai,Hemant Naik,ajdesai955042@gmail.com,1.65,1,1,5/12/2017,5/12/2016,5/12/2016 15:01:56,5/12/2016 15:08:41
Emily,Chen,emily@chief-tools.com,3.95,1,1,5/14/2017,5/14/2016,5/14/2016 4:49:25,5/14/2016 4:55:24
Jane,Coy,justcoy@gmail.com,1,1,1,5/15/2017,5/15/2016,5/15/2016 19:51:20,NULL
은숙,이,elee@gw.kmu.ac.kr,5,1,2,11/11/2017,11/11/2016,5/16/2016 23:53:54,8/19/2016 20:31:30
Adriana Gutierrez,Guerra,adrianoe1432@icloud.com,3.2,1,1,5/18/2017,5/18/2016,5/18/2016 4:46:33,6/16/2016 9:12:22
Margaret,Wolf,mwolfadvocare@yahoo.com,2.85,1,1,5/21/2017,5/21/2016,5/21/2016 7:09:22,5/21/2016 7:12:32
Myriam,Carcas,lamyri@icloud.com,1.7,1,1,5/22/2017,5/22/2016,5/22/2016 13:46:37,5/23/2016 17:19:15
shuwen,ku,kushuwen@yahoo.com.tw,19.45,1,1,10/12/2017,10/12/2016,5/25/2016 5:25:28,10/12/2016 4:05:27
이,오섭,lee0os@korea.kr,6.65,1,1,5/25/2017,5/25/2016,5/25/2016 12:57:33,6/7/2016 12:42:58
怡,陈,37823035@qq.com,2.52,1,1,5/29/2017,5/29/2016,5/28/2016 13:29:05,5/29/2016 22:52:09
Youra,Moon,a990617a@gmail.com,1.46,1,1,5/29/2017,5/29/2016,5/28/2016 18:16:47,5/29/2016 23:52:37
Yukie Motomura,本村 幸江,kakikaki-motomoto@ezweb.ne.jp,0.64,1,1,6/7/2017,6/7/2016,6/7/2016 18:16:05,NULL
수경,김,tnrud6429@naver.com,0,1,1,6/8/2017,,6/8/2016 6:39:52,6/8/2016 14:43:23
Sheila,Collins,lael.davenport4022@outlook.com,2.15,1,1,6/16/2017,6/16/2016,6/16/2016 3:11:40,NULL
JOSE RAMON,FIGUEROA,joserafig@gmail.com,1.35,1,1,6/16/2017,6/16/2016,6/16/2016 13:17:20,6/16/2016 13:24:46
Angie,Gonzales,azure86004@yahoo.com,2.15,1,1,6/23/2017,6/23/2016,6/23/2016 5:08:04,6/23/2016 5:08:04
Nipa,Røhn,nipa.roehn@gmail.com,6.3,1,1,6/23/2017,6/23/2016,6/23/2016 23:20:32,6/23/2016 23:24:12
광일,지,kiji21c@gmail.com,8.31,1,1,6/24/2017,6/24/2016,6/24/2016 3:47:33,6/29/2016 17:33:41
Lance,Gourlay,lance.gourlay@cr2.com,6.39,1,1,7/4/2017,7/4/2016,7/4/2016 19:36:27,7/4/2016 19:36:27
Yuri Hirokawa,広川 優理,y_y0323@ezweb.ne.jp,5.94,1,1,7/6/2017,7/6/2016,7/6/2016 3:48:51,NULL
WANGMENG,WangMeng,gantan439518@163.com,35.95,1,2,7/7/2017,7/7/2016,7/7/2016 22:08:40,7/10/2016 0:51:16
Li-yan,Tea,blotzt@gmail.com,3.67,1,1,7/13/2017,7/13/2016,7/13/2016 17:15:28,7/19/2016 21:26:32
Gennadiy,Chernyshov,gencher093@gmail.com,4.9,1,1,7/14/2017,7/14/2016,7/14/2016 3:38:03,7/20/2016 4:46:27
gene,foster,gpapafoss@aol.com,0.75,1,1,7/18/2017,7/18/2016,7/18/2016 2:34:43,7/18/2016 2:40:13
Catherine,Dymock,catherinedymock@hotmail.com,1.38,1,1,7/18/2017,7/18/2016,7/18/2016 10:02:15,NULL
Ken,Ly Foc,yolandasalvador7@gmail.com,0.63,1,1,7/24/2017,7/24/2016,7/24/2016 22:32:43,8/11/2016 13:17:53
Oriana,Zywczyk,oryplus@gmail.com,1.2,1,1,7/25/2017,7/25/2016,7/25/2016 23:52:03,7/25/2016 23:57:33
YOUNG IN,Choi,youngin.choi83@gmail.com,4.18,1,1,7/26/2017,7/26/2016,7/26/2016 1:42:47,7/26/2016 1:42:47
Hyuk,Kwon,hyun980405@hanmail.net,3.96,1,2,8/30/2017,8/30/2016,7/27/2016 4:03:53,9/12/2016 12:54:44
Anne,Strader,annestrader6@mail.com,9.4,1,2,8/4/2017,8/4/2016,8/4/2016 2:13:34,NULL
Sechang,Oh,osc1052@gmail.com,6.05,1,1,8/7/2017,8/7/2016,8/7/2016 13:09:49,8/11/2016 14:26:51
Osamu ABE,安部　收,dr@abe-clinic.com,0.38,1,2,8/7/2017,8/7/2016,8/7/2016 18:40:46,8/12/2016 19:01:23
Hideko Sato,佐藤　秀子,yff23962@nifty.com,1.24,1,1,8/13/2017,8/13/2016,8/13/2016 17:41:11,NULL
Tania,Laube,tvilla@gmx.ch,6.96,1,1,8/15/2017,8/15/2016,8/15/2016 2:54:38,8/15/2016 2:58:52
Ahmed,Marghany,amarghani@gmail.com,3.95,1,1,8/19/2017,8/19/2016,8/19/2016 12:13:02,8/19/2016 12:27:02
인영,조,joinyung@naver.com,0.87,1,1,8/21/2017,8/21/2016,8/21/2016 23:12:50,8/21/2016 23:12:50
huamin,pan,laba1212@163.com,9.75,1,1,8/26/2017,8/26/2016,8/26/2016 2:36:26,8/26/2016 2:36:26
Ronald,Mabe,dudenight45@hotmail.com,0.75,1,1,9/2/2017,9/2/2016,9/2/2016 13:49:09,NULL
Kathy,Hendrix,kapahendrx1@msn.com,0.8,1,1,9/4/2017,9/4/2016,9/4/2016 8:57:01,9/4/2016 8:59:35
Hiroshi Takeda,武田　浩,takechin@kha.biglobe.ne.jp,3.16,1,1,9/9/2017,9/9/2016,9/9/2016 3:20:37,9/9/2016 3:20:37
Chikayuki Yamamoto,山本　親幸,info@orient-gr.co.jp,2.61,1,1,9/10/2017,9/10/2016,9/10/2016 17:16:45,NULL
Bill,Caraway,redsetter31@frontier.com,0.6,1,1,9/12/2017,9/12/2016,9/12/2016 7:59:06,9/12/2016 8:08:43
Omar,Young,dymobile2@hotmail.com,3.65,1,1,9/13/2017,9/13/2016,9/13/2016 7:44:50,9/13/2016 7:48:44
susana,Anschutz,susyberry@gmail.com,1.1,1,1,9/21/2017,9/21/2016,9/21/2016 2:10:19,9/21/2016 2:15:46
Rodolfo,Ramon,ramonin_leonardo@yahoo.es,2.15,1,1,9/27/2017,9/27/2016,9/27/2016 6:43:25,9/27/2016 6:50:47
Steven,Horowitz,sgnd@outlook.com,0.75,1,1,10/1/2017,10/1/2016,10/1/2016 9:06:52,NULL
Decclan,Evans,decclanevans@gmail.com,0.5,1,1,10/8/2017,10/8/2016,10/8/2016 9:14:31,NULL
Jungmin,Sohn,jungminsohn@hotmail.com,16.95,1,1,10/20/2017,10/20/2016,10/20/2016 19:56:00,10/20/2016 19:59:16
Diane,Ward,hotchpotch@btinternet.com,2.3,1,1,11/28/2017,11/28/2016,,NULL
BERTHA,Gallardo,berthagallardo70@yahoo.com,1.15,1,1,11/19/2017,11/19/2016,10/30/2016 6:15:13,11/1/2016 7:09:59
Yumiko,Tahara,yumiko76@gmail.com,10.05,1,4,1/27/2017,,12/10/2007 3:18:58,1/29/2016 5:14:53
Akihito Matsumoto,松本 知仁,akihito@ciao.plala.or.jp,0.85,1,31,11/2/2017,,1/2/2009 17:13:44,11/2/2016 18:34:56
MASASHI,WATANABE,watanabe@gf6.so-net.ne.jp,7.78,1,12,9/9/2017,,1/2/2009 19:08:07,9/9/2016 13:06:39
Vladimir,Hartman,reshoot@mac.com,8.35,1,10,4/28/2017,,1/16/2009 4:41:58,5/7/2016 3:35:56
gilbert,elias,gelias54@gmail.com,8.1,1,9,6/8/2017,,1/23/2009 17:23:15,6/18/2016 16:44:36
HIDEHIRO,GOTO,510yan@jcom.home.ne.jp,8.21,1,9,1/25/2017,,2/1/2009 16:18:50,11/1/2016 21:51:00
Lisa,Kraayvanger,lisa.kraayvanger@jura.uni-hannover.de,4.47,1,10,3/11/2017,,11/26/2009 9:22:00,4/12/2016 23:02:39
JUDY,SHACKLEFORD,jlcshack@yahoo.com,11.9,1,3,3/16/2017,,12/2/2009 16:47:34,12/2/2009 16:51:51
judith,bamanshaw,bmnshw@yahoo.com.sg,0.6,1,3,4/24/2017,,5/16/2010 21:33:50,9/25/2012 23:43:48
michaele,welter-gorges,verenagorges@aol.com,1.53,1,8,5/25/2017,,8/12/2010 5:22:15,5/25/2016 1:25:34
みよ子,城戸,miyo-k@sa2.so-net.ne.jp,1.45,1,18,3/13/2017,,9/4/2010 17:14:38,3/13/2016 22:31:11
Daphne,Fan,daphnefan@gmail.com,13.51,1,10,5/28/2017,,10/3/2010 3:13:17,5/28/2016 3:31:43
Guy,BIBARD,guyanne42@orange.fr,8.1,1,7,1/7/2017,,10/15/2010 19:56:43,1/8/2016 22:28:16
Jacqueline,Westcott,jw5v@msn.com,2.85,1,7,10/20/2017,,5/5/2011 3:43:22,10/20/2016 9:21:13
Frank,Starvaggi,stvargg@yahoo.com.au,12.6,1,8,4/30/2017,,5/10/2011 19:47:35,4/30/2016 12:03:07
Toni,Lemaich,dlemaich@cogeco.ca,2.55,1,4,7/17/2017,,7/25/2011 5:17:41,7/17/2016 4:49:10
Ru-Jun,Huang,daphnehuang316@yahoo.com.tw,12.4,1,8,3/1/2017,,10/6/2011 5:02:55,3/1/2016 4:57:13
Samuel,Shye,msshye@mscc.huji.ac.il,2.7,1,10,10/18/2017,,11/1/2011 5:16:36,10/18/2016 11:11:48
Yukio Osawa,大澤幸夫,tigeyuki@yahoo.co.jp,12.05,1,8,1/11/2017,,12/11/2011 21:28:41,1/19/2016 0:14:11
chia,anna,annachia@sut.com.sg,3.9,1,5,1/6/2017,,12/12/2011 19:09:20,1/6/2016 19:52:53
Kiyoshi Andou,安藤　澄,zephir1368@nifty.com,4.32,1,19,9/19/2017,,4/29/2012 1:33:24,9/19/2016 19:00:57
Joanna,Li,lijoanna13@gmail.com,7.95,1,3,3/17/2017,,9/15/2012 1:38:18,3/17/2016 21:27:20
susumu ryujin,龍神達,ryujin72si@peace.ocn.ne.jp,13.08,1,21,10/10/2017,,1/8/2013 20:51:04,NULL
蕙君,吳,motherhuang929@hotmail.com,3.65,1,5,7/7/2017,,2/24/2013 21:29:41,7/14/2016 0:49:37
Lindsay,van Mierlo,lindsay.van@exemail.com.au,2.27,1,6,4/11/2017,,2/28/2013 2:38:06,4/11/2016 23:50:22
일중,윤,liner7@gmail.com,18.1,1,2,9/19/2017,,4/8/2013 1:40:44,4/8/2013 2:06:51
William,Rodriguez,will0436@gmail.com,4.2,1,2,4/20/2017,,5/15/2014 12:49:34,4/20/2016 6:16:16
WENMIN,HUANG,wenmin422@gmail.com,6.15,1,3,3/7/2017,,1/14/2015 22:32:40,3/15/2016 16:53:48
Paul,Ridley,paulridley@live.com,0.55,1,3,4/30/2017,,7/25/2015 21:26:34,4/30/2016 10:58:46
masao murata,村田　正雄,murata16@jcom.home.ne.jp,12.7,1,2,5/27/2017,,10/27/2015 16:03:42,6/3/2016 14:23:50
eyal,magen,eyalmagen31@gmail.com,10.2,1,12,9/15/2017,,12/19/2015 14:20:41,10/15/2016 8:07:53
amer,bahoura,amer@mybetterlifewellnesscenter.com,13.8,1,2,1/26/2017,,12/20/2015 7:20:52,4/12/2016 7:02:10
Malcolm,Miller,malbmiller@yahoo.co.nz,2.4,1,2,6/27/2017,,12/20/2015 10:32:22,7/7/2016 10:28:21
Janice,Wilson,headlandwilson@bigpond.com,1.37,1,1,1/1/2017,,1/1/2016 13:33:41,1/1/2016 13:35:55
Shuli,Raanan,shuliraanan@gmail.com,8.3,1,1,1/2/2017,,1/2/2016 20:54:36,1/2/2016 20:54:36
Iris,Jost,jost.iris@web.de,2.53,1,1,1/5/2017,,1/5/2016 6:22:33,1/5/2016 6:28:18
judy,shackleford,tshackgt2@yahoo.com,4.7,1,1,1/5/2017,,1/5/2016 12:29:43,1/5/2016 12:32:41
hea jung,min,meanerme@gmail.com,11.85,1,2,8/5/2017,,1/5/2016 14:35:55,10/24/2016 19:33:44
John,LuJie,johnlu@163.com,5.19,1,1,1/6/2017,,1/6/2016 1:04:50,1/14/2016 21:48:13
sw,Tang,siuwaijacy@yahoo.com.hk,2.75,1,1,1/7/2017,,1/7/2016 0:03:08,1/7/2016 0:14:42
carole,ferro,cferro2598@aol.com,1.25,1,2,3/17/2017,,1/9/2016 16:57:37,3/17/2016 13:54:48
Olwen,Thomas,olwen.email@gmail.com,1.7,1,1,1/9/2017,,1/9/2016 20:58:44,1/9/2016 21:09:09
Lay tin,Tok,tokguan@yahoo.com,4.18,1,1,1/11/2017,,1/11/2016 0:36:03,NULL
Szu Lun,Chang,sharonmama1969@hotmail.com,12.1,1,1,1/12/2017,,1/12/2016 12:01:45,1/12/2016 12:10:29
harry,krusche,harrykrusche@web.de,4.25,1,1,1/13/2017,,1/13/2016 1:05:25,2/2/2016 8:43:06
Audrey,Hird,aahird@btinternet.com,0.74,1,1,2/10/2017,,1/14/2016 4:15:16,2/10/2016 9:16:59
Barry,Herstein,hersteinb@aol.com,7.25,1,1,1/15/2017,,1/15/2016 4:07:09,1/15/2016 4:09:18
恬衡❨TIEN HENG❩,項❨HSIANG❩,haimehsiang@gmail.com,6.7,1,3,7/14/2017,,1/17/2016 18:42:50,7/19/2016 17:22:12
Dahlan,Samad,dahlan@gmail.com,2.35,1,3,2/25/2017,,1/20/2016 3:11:41,2/25/2016 22:35:56
Yong,Kukes,joannekukes@gmail.com,0,1,1,1/24/2017,,1/24/2016 10:14:40,NULL
haesung,min,meanerme@daum.net,0,1,1,1/24/2017,,1/24/2016 18:14:39,1/24/2016 18:23:15
Johanna,Clarke,johannasndrs@gmail.com,0.6,1,2,1/25/2017,,1/25/2016 12:12:48,NULL
Caroline,Thomson,cera6@xtra.co.nz,2.8,1,1,1/25/2017,,1/25/2016 12:38:48,1/25/2016 12:42:52
Yogita,Patel,patelyogita@gmail.com,33.95,1,1,1/27/2017,,1/27/2016 11:41:44,1/27/2016 11:48:34
Janet,Shipley,jan2toot@verizon.net,3.35,1,1,1/30/2017,,1/30/2016 11:08:58,2/21/2016 6:35:53
Terrel,Gordon,ter_el@msn.com,3.45,1,2,3/1/2017,,1/30/2016 21:43:31,3/12/2016 2:40:23
Jürg,Meyer,meyer.tizziani@bluewin.ch,1.28,1,1,2/3/2017,,2/3/2016 3:42:13,NULL
Elena,Renker,erenker@gmx.net,1.1,1,1,2/5/2017,,2/5/2016 16:54:45,2/5/2016 16:57:48
conor,mcpherson,conormac18z@hotmail.co.uk,7.15,1,1,2/7/2017,,2/7/2016 12:19:55,2/16/2016 2:28:08
BRIAN,THOMPSON,jenny@globalsupplyline.com.au,3.4,1,1,2/8/2017,,2/8/2016 16:44:07,2/8/2016 16:50:46
Vanessa,Taylor,ness.taylor@hotmail.com,0.58,1,1,2/8/2017,,2/8/2016 22:49:33,2/8/2016 22:53:37
Regina,Buergler,regina.buergler@bluewin.ch,4.08,1,3,5/8/2017,,2/9/2016 3:47:24,NULL
Betty,Lennard,falcon.lodge@xtra.co.nz,1.11,1,1,2/9/2017,,2/9/2016 20:41:00,2/9/2016 20:44:16
Nanako,Nyui,tazz75@me.com,1.76,1,1,2/10/2017,,2/10/2016 20:15:09,2/10/2016 20:24:14
miles,buxton,buxton887@btinternet.com,1.25,1,2,3/18/2017,,2/12/2016 6:30:36,2/12/2016 6:30:36
Claudia,Bretschneider,clodia22ch@gmail.com,2.88,1,1,2/14/2017,,2/14/2016 0:21:18,NULL
Elizabeth,Macpherson,lizzie1948@btinternet.com,1.56,1,1,2/14/2017,,2/14/2016 8:51:19,2/14/2016 8:53:57
헌국,정,1125kukran@hanmail.net,0.59,1,1,2/15/2017,,2/15/2016 22:07:22,2/27/2016 18:22:07
Jan,Howarth,nz_nana_poppa@yahoo.com.au,5.12,1,1,2/16/2017,,2/16/2016 21:35:25,2/16/2016 21:38:52
Seng Ying,Pang,melodypsy@yahoo.com,3.35,1,1,2/19/2017,,2/19/2016 17:44:58,2/19/2016 18:20:50
Dennis,Smith,imhere252@yahoo.com,1.25,1,3,6/1/2017,,2/23/2016 7:16:24,3/8/2016 5:12:53
Jon,Magin,jmagin@hotmail.com,2.77,1,1,2/23/2017,,2/23/2016 19:35:26,2/29/2016 23:48:48
kyung in,kim,coolfne@naver.com,11.4,1,1,3/1/2017,,2/25/2016 18:21:14,10/17/2016 23:29:12
Mary,Harding,maryaharding27@gmail.com,12.75,1,1,2/26/2017,,2/26/2016 1:32:50,3/8/2016 6:02:59
Yvonne,Bennett,yvbennett@yahoo.com,2,1,1,2/27/2017,,2/27/2016 9:38:04,2/27/2016 9:43:21
Gabriele,Scheingraber,gabi@airelle.de,8.26,1,1,2/28/2017,,2/28/2016 5:09:29,2/28/2016 5:14:00
Lucille,Herbert,jasonsitanson99@yahoo.com,11.05,1,1,3/4/2017,,3/4/2016 0:02:20,3/4/2016 0:13:43
Jiro Arikawa,有川二郎,arikawajirou111@gmail.com,4.53,1,2,10/22/2017,,3/6/2016 4:46:05,10/22/2016 20:52:05
芳萍,方,anita.fang06@gmail.com,12.15,1,5,9/7/2017,,3/7/2016 18:00:40,9/12/2016 12:50:20
Marie,Anderson,mannick.anderson@gmail.com,1.01,1,1,3/8/2017,,3/8/2016 0:10:47,3/12/2016 12:02:39
kurt,renker,renker@gmx.com,8.73,1,1,3/10/2017,,3/10/2016 7:32:39,3/10/2016 7:39:26
Kristina,Dudukal,alexdudukal@yahoo.com,6.55,1,1,3/10/2017,,3/10/2016 18:13:37,3/10/2016 18:17:50
Haydn,Perndt,woermahaoyoo@yahoo.com,11.05,1,1,3/11/2017,,3/11/2016 4:26:42,3/11/2016 4:32:19
Debra,Welu,debwelu@live.com,2.3,1,1,3/15/2017,,3/15/2016 15:06:30,3/15/2016 15:14:28
Fitria,Wibowo,wibowo.fitria@gmail.com,6.7,1,1,3/15/2017,,3/15/2016 16:50:38,NULL
SHAO TIEN,CHEN,team0801@yahoo.com.tw,13.55,1,1,3/16/2017,,3/16/2016 2:02:18,3/16/2016 2:12:41
Alissa,Gilbert,alissastearman@yahoo.com,1.65,1,1,3/16/2017,,3/16/2016 10:36:05,NULL
경연,장,golcondar1@nate.com,2.67,1,1,3/16/2017,,3/16/2016 14:29:32,4/11/2016 12:30:48
德瑜,許,scarletthsu@gmail.com,5.05,1,1,3/18/2017,,3/18/2016 1:28:36,3/24/2016 17:33:39
sixtus,Wilkinson,trene45@gmail.com,4.2,1,1,3/20/2017,,3/20/2016 18:00:13,3/20/2016 18:25:05
JEANNETTE,BRAFMAN,laurenceluria@gmail.com,4.37,1,1,3/25/2017,,3/25/2016 8:44:57,NULL
Petra,Kuncar,petruse@gmail.com,0.49,1,1,3/28/2017,,3/28/2016 9:38:12,NULL
신애,염,912918@naver.com,4.17,1,1,3/29/2017,,3/29/2016 3:44:03,3/29/2016 3:51:22
SIN HEA,YEOM,yeomsinhea@gmail.com,4.25,1,1,3/29/2017,,3/29/2016 4:01:26,4/28/2016 10:33:37
khaled,ALGHAMDI,ghamka0o@gmail.com,3.2,1,1,3/30/2017,,3/30/2016 9:42:13,5/12/2016 18:50:01
Abdulrahman,alosaimi,ah.osaime@gmail.com,8.95,1,1,3/31/2017,,3/31/2016 9:37:18,NULL
April,Terrell,aprilt123@centurytel.net,1.2,1,2,5/25/2017,,3/31/2016 15:18:33,6/15/2016 14:33:42
David,Smith,dcsmith5197@yahoo.com,1.7,1,1,4/1/2017,,4/1/2016 6:28:35,NULL
Achill,Schnetzer,achilles.schnetzer@gmx.ch,0,1,1,4/5/2017,,4/5/2016 21:23:04,4/8/2016 8:08:34
Ruth,Davie,rawdavie@gmail.com,4.05,1,2,10/31/2017,,4/7/2016 10:26:16,10/31/2016 8:43:45
Yuan chieh,Ho,ha022914@seed.net.tw,3.08,1,1,4/9/2017,,4/9/2016 20:42:29,4/9/2016 20:46:29
Andrea,Li,interpreter.oak@gmail.com,4.43,1,1,4/10/2017,,4/10/2016 22:39:35,4/20/2016 1:27:43
Oren,Edri,oren.edri@gmail.com,35.5,1,2,7/29/2017,,4/13/2016 6:52:05,8/27/2016 5:59:11
Eun j,Choi,yin1020.ej@gmail.com,3.96,1,1,4/14/2017,,4/14/2016 10:32:44,5/3/2016 10:33:51
mary,Gnerer,mk2gnerer@earthlink.net,2.2,1,1,4/16/2017,,4/16/2016 2:46:09,NULL
Andy,Bray,abray@familylife.org.nz,2.42,1,1,4/16/2017,,4/16/2016 10:35:19,4/16/2016 10:36:58
MSSS,SALAH,saarc-sec@asia.com,3.75,1,1,4/19/2017,,4/19/2016 0:31:26,4/19/2016 1:25:27
humam,alshammat,homam8882008@gmail.com,10.89,1,1,4/21/2017,,4/21/2016 19:43:51,4/21/2016 19:53:58
Clint,Walker,clntwlkr.ace@gmail.com,1.94,1,1,4/23/2017,,4/23/2016 19:02:00,4/30/2016 11:41:59
Yi-Ying,Lai,c1314520341@yahoo.com.tw,12.75,1,1,4/25/2017,,4/25/2016 3:50:24,4/25/2016 3:53:41
Jennifer,Magpali,wmark@markwolk.com,3.6,1,1,4/30/2017,,4/30/2016 10:56:10,5/13/2016 9:28:24
Hanna,Vycudilik,hanna.vycudilik@gmx.at,1.62,1,1,5/5/2017,,5/5/2016 18:34:08,5/5/2016 18:38:43
humayyon,naseer,humayyon@hotmail.com,24.65,1,1,5/6/2017,,5/6/2016 9:35:01,5/6/2016 9:39:12
Gabriele,Marchesi,lele_mar@virgilio.it,3.79,1,1,5/7/2017,,5/7/2016 20:45:05,5/16/2016 20:53:40
NATASCIA,FURINI,natascia@docklands.snap.com.au,0.75,1,2,5/27/2017,,5/16/2016 16:52:20,5/31/2016 13:35:57
Sandra,Cowan,sandracowan123@gmail.com,2.5,1,1,5/17/2017,,5/17/2016 8:00:50,5/17/2016 8:00:50
Hiroko,Fujita,hutawabi@yahoo.co.jp,2.55,1,1,5/21/2017,,5/21/2016 5:55:42,6/4/2016 1:41:55
ANGELO,SARRO,andreamanda@comcast.net,0.55,1,1,5/23/2017,,5/23/2016 5:15:57,NULL
Julie,Kadas,juliekadas@yahoo.com,1.95,1,1,5/23/2017,,5/23/2016 9:06:07,NULL
Patrice,Spencer,patricespencer@comcast.net,7.65,1,1,5/23/2017,,5/23/2016 21:57:08,5/28/2016 1:49:14
Amsellem,Bénédicte,ossipowna@yahoo.fr,4.05,1,1,5/29/2017,,5/29/2016 2:24:47,NULL
Dennis,Smith,ideaman52@juno.com,1.25,1,2,10/27/2017,,6/1/2016 16:32:42,10/27/2016 1:23:48
Shanshan,Yang,reprapdiscount@gmail.com,6.1,1,1,6/6/2017,,6/6/2016 2:06:26,6/6/2016 2:06:26
martine,dorfman,martinecasting@yahoo.com,4,1,1,6/6/2017,,6/6/2016 7:03:27,NULL
Milan,Grepl,milan310171@web.de,1.35,1,1,6/6/2017,,6/6/2016 7:27:41,6/6/2016 7:35:29
Irina,Chernyshova,pmukadas@gmail.com,5.9,1,1,6/10/2017,,6/10/2016 9:57:19,6/21/2016 0:06:08
TURKI,ALSEKHAN,hunter-399@hotmail.com,2.1,1,1,6/10/2017,,6/10/2016 22:51:57,6/17/2016 10:54:14
Anne,Manning,annemanning@xtra.co.nz,1.85,1,1,6/16/2017,,6/16/2016 14:33:01,6/16/2016 14:39:03
Lewis,Kadell,lakad@aol.com,2.1,1,1,6/19/2017,,6/19/2016 7:59:24,6/19/2016 8:02:50
Mohammed,Aljaladi,abo_zayed570@hotmail.com,3.2,1,1,6/24/2017,,6/24/2016 12:30:08,7/6/2016 5:58:14
Mary,Hanratty,maryhanratty@comcast.net,4.1,1,1,6/25/2017,,6/25/2016 3:32:54,7/6/2016 4:16:57
Sylvie,Marion,maleelou@hotmail.com,4.84,1,1,6/29/2017,,6/29/2016 0:33:40,NULL
jian,lin,jianqing1994@hotmail.com,2.22,1,1,7/1/2017,,7/1/2016 9:15:05,7/1/2016 9:32:23
Rebecca,Mahlstedt,rebecca.dann74@gmail.com,2.56,1,1,7/2/2017,,7/2/2016 23:19:48,8/31/2016 21:48:50
Debbie,Brand,debbiesexiazhell45@gmail.com,8.3,1,1,7/7/2017,,7/7/2016 14:37:13,NULL
Eileen,Wong,eileenwong@cschl.com.sg,8.08,1,1,7/7/2017,,7/7/2016 17:20:34,7/7/2016 17:20:34
Lacy,Hebert,ljpalmer12@gmail.com,0.75,1,1,7/8/2017,,7/8/2016 6:18:57,NULL
Mike,Yeary,blacksheep7777@yahoo.com,2.5,1,1,7/16/2017,,7/16/2016 13:48:31,NULL
Jessica,Mialon,mialon.jessica@orange.fr,1.21,1,1,7/25/2017,,7/25/2016 4:52:54,7/25/2016 4:57:57
Wun Cih,Wu,misssister2001@yahoo.com.tw,6.27,1,1,7/27/2017,,7/27/2016 23:41:18,7/28/2016 18:19:35
Vidji,Hermann,didicreations@live.fr,0.79,1,1,8/7/2017,,8/7/2016 6:09:21,NULL
Dearne,Berry,dearneandrod.fredum@gmail.com,1.95,1,1,8/7/2017,,8/7/2016 16:29:55,8/7/2016 16:29:55
Cristina,Chelemen,cristinacchelemen@gmail.com,4.88,1,1,8/9/2017,,8/9/2016 22:16:15,8/9/2016 22:19:24
Eni,Qirjako,psychoinfoal@yahoo.de,3.1,1,1,8/17/2017,,8/17/2016 20:06:17,NULL
shahla,davoudi,shahladavoudi@gmail.com,4.8,1,1,8/21/2017,,8/21/2016 13:33:36,8/21/2016 13:35:57
julie,maclachlan,jjmaclachlan@xtra.co.nz,7.62,1,1,8/23/2017,,8/23/2016 10:51:17,8/23/2016 11:00:25
youssef,aitlmouden,didi.paris12@gmail.com,1.95,1,1,8/23/2017,,8/23/2016 17:22:03,8/23/2016 17:23:23
연희,서,lovnpeace@hanmail.net,2.7,1,1,8/24/2017,,8/24/2016 20:55:51,8/24/2016 21:01:05
thomas,CORREGE,thomas@correge.net,7.1,1,1,8/26/2017,,8/26/2016 4:52:24,8/26/2016 4:56:09
lynda,hammond,ljhammond21@gmail.com,8.2,1,1,8/29/2017,,8/29/2016 4:18:05,NULL
Ginny,Worthington,virginia.worthington21@gmail.com,1.9,1,1,8/30/2017,,8/30/2016 17:19:08,8/30/2016 17:23:17
YI-PING,HUANG,money585888@yahoo.com.tw,9.4,1,1,9/1/2017,,9/1/2016 19:51:43,NULL
camilla,manetta,camhmm@yahoo.it,8,1,1,9/6/2017,,9/6/2016 0:30:19,10/7/2016 22:44:25
Gil,Mualem,dhk.nugko@gmail.com,4.35,1,1,9/6/2017,,9/6/2016 14:40:45,NULL
Constantina,Zabava,zabavac@yahoo.com,2.15,1,1,9/8/2017,,9/8/2016 9:42:07,9/8/2016 9:47:54
Charlene,Brass,cbrass@milconconstruction.com,3.15,1,1,9/10/2017,,9/10/2016 6:12:50,9/10/2016 6:12:50
Ines,Dr. Fennewald,ines.fennewald@googlemail.com,4.21,1,1,9/12/2017,,9/12/2016 18:42:46,9/12/2016 18:48:32
Jeanny,Tham,jeannytham@aimchem.com.sg,5.2,1,1,10/3/2017,,10/3/2016 16:00:18,10/10/2016 18:25:37
youngho,park,yhpark@hs.ac.kr,4.1,1,1,10/4/2017,,10/4/2016 22:01:42,10/4/2016 22:01:42
Tormod Sten,Palmesen,tpalme@broadpark.no,25.7,1,1,10/11/2017,,10/11/2016 1:56:28,10/21/2016 21:14:04
Liam,O’Brien,liamobrien0825@yahoo.ca,1.05,1,1,10/14/2017,,10/14/2016 15:41:34,NULL
Angela,Wong,angelawong38@hotmail.com,0.57,1,1,10/17/2017,,10/17/2016 17:04:57,10/19/2016 14:22:34
William E. ❨Prime❩,Jamison,wej@fuse.net,2.9,1,1,10/19/2017,,10/19/2016 3:36:13,NULL
Helena,Daniel,hdaniel@lrh.com.au,4.79,1,1,10/20/2017,,10/20/2016 13:00:28,10/20/2016 13:04:02
Rachael,Bacon,rachaelbacon@yahoo.com,2.8,1,1,10/21/2017,,10/21/2016 9:02:13,NULL
Bozena,Badurek,badurekb@yahoo.fr,6.63,1,1,10/21/2017,,10/21/2016 22:33:36,10/22/2016 18:48:57
Armienda,Lopez,abmin60@gmail.com,3.9,1,1,10/23/2017,,10/23/2016 5:55:33,10/23/2016 6:07:24
SAAD,ALSHUHAYEB,admsash@hotmail.com,8.2,1,1,10/23/2017,,10/23/2016 8:05:31,10/23/2016 8:05:31
Diane,Griffin,peter.griffin@btinternet.com,8.5,1,2,6/22/2017,6/22/2016,9/17/2008 5:15:53,9/17/2008 5:19:10
richard,dorst,ridor1@hotmail.com,5.21,1,3,10/24/2017,10/24/2016,1/16/2010 16:47:09,11/2/2016 6:46:01
Philippe,BAILLE,ph_baille@hotmail.com,1.68,1,1,1/27/2017,1/27/2016,11/26/2013 10:37:16,11/26/2013 10:37:16
Tass,Spyropoulos,tspyropo@bigpond.net.au,3.06,1,2,4/19/2017,4/19/2016,12/28/2015 21:33:04,5/11/2016 9:25:36
승태,임,im.starwoods@gmail.com,0,1,1,1/2/2017,1/2/2016,1/2/2016 4:46:47,1/24/2016 0:08:27
Miya　Asai,浅井　美弥,honey-bee.3851@docomo.ne.jp,1.62,1,1,1/27/2017,1/27/2016,1/27/2016 17:37:20,3/7/2016 14:14:57
judy,fitzgerald,fitzjc67@msn.com,3.9,1,1,2/4/2017,2/4/2016,2/4/2016 7:51:23,NULL
Gavin,Chisholm,chisholmgavin3@hotmail.com,2,1,1,2/4/2017,2/4/2016,2/4/2016 21:27:40,2/4/2016 21:40:45
Frances,Petit,fpetithurdle@orange.fr,2,1,1,2/6/2017,2/6/2016,2/6/2016 6:07:54,2/6/2016 6:13:13
Pamela,Robinson,pamrobin@live.co.uk,2.16,1,1,2/8/2017,2/8/2016,2/8/2016 23:44:10,2/8/2016 23:46:44
Jing,Yuan,yuan555@gmail.com,5.54,1,1,2/15/2017,2/15/2016,2/15/2016 11:14:43,2/19/2016 12:38:21
Janis,Liu,janisleeliu@yahoo.com,3.1,1,1,3/8/2017,3/8/2016,3/8/2016 7:53:47,NULL
Malcolm,Wilson,malcolmwilson1958@yahoo.co.uk,3.2,1,1,3/11/2017,3/11/2016,3/11/2016 18:12:19,3/11/2016 18:17:34
stephen,jennings,steviej23@talktalk.net,4.56,1,1,3/12/2017,3/12/2016,3/12/2016 7:14:47,3/21/2016 6:20:38
Constantin,Rosu ❨Ball Agencies Ltd❩,pucu@clear.net.nz,5.26,1,1,4/17/2017,4/17/2016,4/17/2016 13:58:46,4/17/2016 14:03:02
steven taylor,Atlas Concrete,steven_taylor@xtra.co.nz,5.16,1,1,4/18/2017,4/18/2016,4/18/2016 21:36:46,NULL
Felicity,Raymond,felicity.raymond@bigpond.com,1.73,1,1,4/19/2017,4/19/2016,4/19/2016 16:04:32,NULL
Kathryn,Hodges,khodges@bne.catholic.edu.au,9.65,1,1,4/23/2017,4/23/2016,4/23/2016 13:44:13,NULL
May,O’Brien,may.obrien@sky.com,2.77,1,1,4/30/2017,4/30/2016,4/30/2016 7:24:13,5/12/2016 3:44:03
Alyson,Fisher,iluvcats_2@att.net,6.45,1,1,5/13/2017,5/13/2016,5/13/2016 17:16:58,5/13/2016 17:22:30
Keren,Carlyle,kerenneal@gmail.com,1.63,1,1,6/8/2017,6/8/2016,6/8/2016 16:24:56,NULL
Eleanor,Wilson,aw629252@aol.com,3.39,1,1,6/9/2017,6/9/2016,6/9/2016 22:53:41,NULL
Takeshi Shimamura,島村剛,hanginthere_s@yahoo.co.jp,4.49,1,1,6/22/2017,6/22/2016,6/22/2016 19:38:33,6/22/2016 19:44:17
carl,hawkins,carl2busy2hawkins@gmail.com,12.27,1,1,6/27/2017,6/27/2016,6/27/2016 23:10:41,6/27/2016 23:13:55
Tony,Thew,diver1@xtra.co.nz,3.6,1,1,6/28/2017,6/28/2016,6/28/2016 6:42:15,6/28/2016 6:46:10
Andrei,Arhipov,chesencaadam@mail.ru,0,1,1,7/6/2017,7/6/2016,7/6/2016 13:22:38,NULL
Nicola,Krijger,nicola.krijger@gmail.com,1.66,1,1,7/6/2017,7/6/2016,7/6/2016 18:41:08,7/6/2016 18:47:28
계순,박,79fly2thesky@naver.com,8.79,1,1,7/18/2017,7/18/2016,7/18/2016 17:44:16,7/18/2016 17:47:52
David,Hein,dhein001@hawaii.rr.com,4.15,1,1,7/28/2017,7/28/2016,7/28/2016 22:08:45,7/28/2016 22:30:21
Meladi,Hagedorn,melbunny@msn.com,5.65,1,1,8/3/2017,8/3/2016,8/3/2016 9:43:34,NULL
Melanie,Travers,dayne.and.mel@gmail.com,5.3,1,1,8/6/2017,8/6/2016,8/6/2016 8:44:17,8/6/2016 8:46:48
Holly,Beals,hollybeals@gmail.com,3.95,1,1,8/7/2017,8/7/2016,8/7/2016 16:16:55,NULL
Jan,Coombs,jancoombs@btinternet.com,3.39,1,1,8/11/2017,8/11/2016,8/11/2016 8:22:07,NULL
Nicole,du Plessis,nicoleduplessis@xtra.co.nz,3.05,1,1,9/4/2017,9/4/2016,9/4/2016 9:37:40,NULL
Alison,Wilding,alison@intouchhandtherapy.co.nz,2.7,1,1,9/10/2017,9/10/2016,9/10/2016 13:46:36,9/10/2016 13:49:05
Christy,Okie,velvetcello@letterboxes.org,8.51,1,1,9/12/2017,9/12/2016,9/12/2016 4:09:18,9/12/2016 4:16:17
justin,Burton,butch1124@hotmail.com,3.45,1,2,9/22/2017,9/22/2016,9/18/2016 7:52:03,9/22/2016 10:58:58
David,Andrews,reddavebatcave@gmail.com,3.39,1,1,10/3/2017,10/3/2016,10/3/2016 5:19:14,NULL
Masaaki Tsukahara,塚原　正明,amadeus@rhythm.ocn.ne.jp,10.6,1,1,10/5/2017,10/5/2016,10/5/2016 1:13:49,10/5/2016 14:01:04
Rie Kurata,倉田　里恵,nagomimi@mbm.nifty.com,7.55,1,1,10/31/2017,10/31/2016,10/31/2016 15:41:50,10/31/2016 17:22:07
Lamese,Tomokino,knalahgirl@hotmail.com,1.59,1,1,1/21/2040,,1/8/2010 9:47:09,2/21/2012 11:39:27
shani,williams,shanzw06@hotmail.com,12.33,1,1,6/10/2040,,5/29/2010 6:55:45,5/29/2010 6:58:12
Chrissi,Pegg,chrissipegg@gmail.com,5.24,1,1,10/11/2040,,8/30/2010 4:35:56,10/18/2010 4:58:01
Brenda,Norris,brendanorris2002@yahoo.com,5.56,1,1,12/7/2040,,12/2/2010 0:33:44,12/2/2010 0:43:51
Liz,Borrow,lizborrow@btinternet.com,2.84,1,1,2/7/2041,,12/15/2010 5:20:03,12/15/2010 5:20:03
Tody,Spendiff,tobyspendiff@hotmail.com,4.15,1,1,2/16/2042,,1/4/2012 15:59:18,NULL
Rosanna,Quatela,rosanna.quatela@gmail.com,5.47,1,1,7/24/2042,,7/14/2012 13:51:04,NULL
Julie,Hare,hare1988@xtra.co.nz,0,1,1,1/26/2017,1/26/2016,1/26/2016 14:28:20,2/22/2016 15:02:05
Sapph,Prentice,sapphonia@yahoo.co.nz,0.83,1,1,1/30/2017,1/30/2016,1/30/2016 18:07:49,1/30/2016 18:14:32
Alison,McKenna,ali_mckenna_@hotmail.com,5.26,1,1,2/6/2017,2/6/2016,2/6/2016 13:24:57,2/6/2016 13:30:03
Katrina,Hema,thew8s@hotmail.com,1.04,1,1,3/11/2017,3/11/2016,3/11/2016 11:34:43,3/11/2016 11:36:54
Lizzie,Randall,travelchick72@yahoo.co.uk,0.9,1,1,4/26/2017,4/26/2016,4/26/2016 3:46:56,NULL
Seolya,Paek,love060700@naver.com,4.29,1,1,4/28/2017,4/28/2016,4/28/2016 17:47:40,4/28/2016 18:42:14
jayne,hanson,jayne@tordanhealthcare.co.uk,5.55,1,1,5/23/2017,5/23/2016,5/23/2016 22:56:25,NULL
Angela,Hoggan,angelahoggan@yahoo.co.uk,0.74,1,1,6/9/2017,6/9/2016,6/9/2016 21:59:26,NULL
Elena,Lynch,elena_lynch@hotmail.co.uk,0.69,1,1,6/16/2017,6/16/2016,6/16/2016 10:22:28,NULL
Jude,Ofsoske,rudithran@hotmail.com,1.56,1,1,7/31/2017,7/31/2016,7/31/2016 18:50:16,7/31/2016 18:53:34
Tegan,Clark,teganclarkphotography@gmail.com,0.83,1,1,11/2/2017,11/2/2016,11/2/2016 15:57:21,NULL
